%YAML 1.1
%TAG !u! tag:unity3d.com,2011:
--- !u!114 &11400000
MonoBehaviour:
  m_ObjectHideFlags: 0
  m_CorrespondingSourceObject: {fileID: 0}
  m_PrefabInstance: {fileID: 0}
  m_PrefabAsset: {fileID: 0}
  m_GameObject: {fileID: 0}
  m_Enabled: 1
  m_EditorHideFlags: 0
  m_Script: {fileID: 11500000, guid: fd15de05d9c795c479be1f19d2dce147, type: 3}
  m_Name: NPCSounds
  m_EditorClassIdentifier: 
  impactWallSoft:
  - {fileID: 8300000, guid: 8abd7b26b88c9dd4789607863588ed0c, type: 3}
  impactWallHard:
  - {fileID: 8300000, guid: 6c226d395c9064043861124d6cd0872c, type: 3}
  impactOtherSoft:
  - {fileID: 8300000, guid: 94e97b2550ee8804b8eb73d912551553, type: 3}
  - {fileID: 8300000, guid: 4b0ab0075657be2439afa7566b2654f0, type: 3}
  impactOtherHard:
  - {fileID: 8300000, guid: d78c15033f15de642a8ba8b3f677a31f, type: 3}
