%YAML 1.1
%TAG !u! tag:unity3d.com,2011:
--- !u!114 &-3632243631883541751
MonoBehaviour:
  m_ObjectHideFlags: 11
  m_CorrespondingSourceObject: {fileID: 0}
  m_PrefabInstance: {fileID: 0}
  m_PrefabAsset: {fileID: 0}
  m_GameObject: {fileID: 0}
  m_Enabled: 1
  m_EditorHideFlags: 0
  m_Script: {fileID: 11500000, guid: d0353a89b1f911e48b9e16bdc9f2e058, type: 3}
  m_Name: 
  m_EditorClassIdentifier: 
  version: 1
--- !u!21 &2100000
Material:
  serializedVersion: 6
  m_ObjectHideFlags: 0
  m_CorrespondingSourceObject: {fileID: 0}
  m_PrefabInstance: {fileID: 0}
  m_PrefabAsset: {fileID: 0}
  m_Name: Bone
  m_Shader: {fileID: 4800000, guid: 2bbe24d8ff8766c478e9a0659538554d, type: 3}
  m_ShaderKeywords: BOOLEAN_BA060D94_ON
  m_LightmapFlags: 4
  m_EnableInstancingVariants: 0
  m_DoubleSidedGI: 0
  m_CustomRenderQueue: -1
  stringTagMap: {}
  disabledShaderPasses: []
  m_SavedProperties:
    serializedVersion: 3
    m_TexEnvs:
    - Texture2D_33BD19BE:
        m_Texture: {fileID: 2800000, guid: 9a81f1a59f171804e84fce76584bdcb7, type: 3}
        m_Scale: {x: 1, y: 1}
        m_Offset: {x: 0, y: 0}
    - Texture2D_4016D18F:
        m_Texture: {fileID: 2800000, guid: ecb23393a0d1b424a82fff68a4c00a66, type: 3}
        m_Scale: {x: 1, y: 1}
        m_Offset: {x: 0, y: 0}
    - Texture2D_44D33F6A:
        m_Texture: {fileID: 2800000, guid: d7cef4ab0f74965408081afcddeb575e, type: 3}
        m_Scale: {x: 1, y: 1}
        m_Offset: {x: 0, y: 0}
    - Texture2D_60FBD742:
        m_Texture: {fileID: 2800000, guid: fab85e0cacda9644a99e5182a86b71f5, type: 3}
        m_Scale: {x: 1, y: 1}
        m_Offset: {x: 0, y: 0}
    - Texture2D_934AEBD0:
        m_Texture: {fileID: 2800000, guid: 87ce03bd447ccce48bbff87ac0d8355f, type: 3}
        m_Scale: {x: 1, y: 1}
        m_Offset: {x: 0, y: 0}
    - Texture2D_9F85EF80:
        m_Texture: {fileID: 2800000, guid: 40da0395b61db4448b98bab66d6b549c, type: 3}
        m_Scale: {x: 1, y: 1}
        m_Offset: {x: 0, y: 0}
    - Texture2D_AC095B54:
        m_Texture: {fileID: 2800000, guid: 87ce03bd447ccce48bbff87ac0d8355f, type: 3}
        m_Scale: {x: 1, y: 1}
        m_Offset: {x: 0, y: 0}
    - Texture2D_AC8B0498:
        m_Texture: {fileID: 2800000, guid: ecb23393a0d1b424a82fff68a4c00a66, type: 3}
        m_Scale: {x: 1, y: 1}
        m_Offset: {x: 0, y: 0}
    - Texture2D_E04AA1A0:
        m_Texture: {fileID: 0}
        m_Scale: {x: 1, y: 1}
        m_Offset: {x: 0, y: 0}
    - Texture2D_E101F3E8:
        m_Texture: {fileID: 2800000, guid: 40da0395b61db4448b98bab66d6b549c, type: 3}
        m_Scale: {x: 1, y: 1}
        m_Offset: {x: 0, y: 0}
    - _BaseMap:
        m_Texture: {fileID: 2800000, guid: 9644eb6aca67672449e2bcbb0eab8e84, type: 3}
        m_Scale: {x: 1, y: 1}
        m_Offset: {x: 0, y: 0}
    - _BumpMap:
        m_Texture: {fileID: 2800000, guid: 3b0b7c1f4ac9f6b499e27cf84e722ff4, type: 3}
        m_Scale: {x: 1, y: 1}
        m_Offset: {x: 0, y: 0}
    - _CrosshatchMapDiagonal:
        m_Texture: {fileID: 2800000, guid: ba8b74e1319927740a777995359d06dd, type: 3}
        m_Scale: {x: 1, y: 1}
        m_Offset: {x: 0, y: 0}
    - _CrosshatchMapMixed:
        m_Texture: {fileID: 2800000, guid: 8e412b76bf946e54a98decf0a28684b3, type: 3}
        m_Scale: {x: 1, y: 1}
        m_Offset: {x: 0, y: 0}
    - _DetailAlbedoMap:
        m_Texture: {fileID: 0}
        m_Scale: {x: 1, y: 1}
        m_Offset: {x: 0, y: 0}
    - _DetailMask:
        m_Texture: {fileID: 0}
        m_Scale: {x: 1, y: 1}
        m_Offset: {x: 0, y: 0}
    - _DetailNormalMap:
        m_Texture: {fileID: 0}
        m_Scale: {x: 1, y: 1}
        m_Offset: {x: 0, y: 0}
    - _EmissionMap:
        m_Texture: {fileID: 0}
        m_Scale: {x: 1, y: 1}
        m_Offset: {x: 0, y: 0}
    - _MainTex:
        m_Texture: {fileID: 0}
        m_Scale: {x: 1, y: 1}
        m_Offset: {x: 0, y: 0}
    - _MetallicGlossMap:
        m_Texture: {fileID: 0}
        m_Scale: {x: 1, y: 1}
        m_Offset: {x: 0, y: 0}
    - _OcclusionMap:
        m_Texture: {fileID: 0}
        m_Scale: {x: 1, y: 1}
        m_Offset: {x: 0, y: 0}
    - _ParallaxMap:
        m_Texture: {fileID: 0}
        m_Scale: {x: 1, y: 1}
        m_Offset: {x: 0, y: 0}
    - _RampTexture:
        m_Texture: {fileID: 2800000, guid: 277bfe83678c59342ab52a8c26f313b7, type: 3}
        m_Scale: {x: 1, y: 1}
        m_Offset: {x: 0, y: 0}
    - _SampleTexture2D_2F878328_Texture_1:
        m_Texture: {fileID: 2800000, guid: 09971e3cd6c99cc43a628793db54c9ae, type: 3}
        m_Scale: {x: 1, y: 1}
        m_Offset: {x: 0, y: 0}
    - _SampleTexture2D_8490dc3a207ee289ae963b98aa0277da_Texture_1:
        m_Texture: {fileID: 2800000, guid: 09971e3cd6c99cc43a628793db54c9ae, type: 3}
        m_Scale: {x: 1, y: 1}
        m_Offset: {x: 0, y: 0}
    - _SmoothnessMap:
        m_Texture: {fileID: 2800000, guid: 40da0395b61db4448b98bab66d6b549c, type: 3}
        m_Scale: {x: 1, y: 1}
        m_Offset: {x: 0, y: 0}
    - _SpecGlossMap:
        m_Texture: {fileID: 0}
        m_Scale: {x: 1, y: 1}
        m_Offset: {x: 0, y: 0}
    - _SpecularMap:
        m_Texture: {fileID: 2800000, guid: 40da0395b61db4448b98bab66d6b549c, type: 3}
        m_Scale: {x: 1, y: 1}
        m_Offset: {x: 0, y: 0}
    - _Texture2DAsset_298E99D5_Out_0:
        m_Texture: {fileID: 2800000, guid: 2102aa1fb9f7e99448c0138e770a2c0d, type: 3}
        m_Scale: {x: 1, y: 1}
        m_Offset: {x: 0, y: 0}
    - _Texture2DAsset_c462739cf0f03a85a649a69681c2aa83_Out_0:
        m_Texture: {fileID: 2800000, guid: 2102aa1fb9f7e99448c0138e770a2c0d, type: 3}
        m_Scale: {x: 1, y: 1}
        m_Offset: {x: 0, y: 0}
    - unity_Lightmaps:
        m_Texture: {fileID: 0}
        m_Scale: {x: 1, y: 1}
        m_Offset: {x: 0, y: 0}
    - unity_LightmapsInd:
        m_Texture: {fileID: 0}
        m_Scale: {x: 1, y: 1}
        m_Offset: {x: 0, y: 0}
    - unity_ShadowMasks:
        m_Texture: {fileID: 0}
        m_Scale: {x: 1, y: 1}
        m_Offset: {x: 0, y: 0}
    m_Ints: []
    m_Floats:
    - BOOLEAN_BA060D94: 1
    - BOOLEAN_C5E99559: 0
    - BOOLEAN_CF6B5A6C: 0
    - Vector1_6CA1E8B0: 0.25
    - Vector1_732F5429: 0.5
    - Vector1_8DE3D428: 0.4
    - _AlphaClip: 0
    - _AmbientLightInfluence: 0.9
    - _Blend: 0
    - _BumpScale: 1
    - _ClearCoatMask: 0
    - _ClearCoatSmoothness: 0
    - _CrosshatchHighlightsBoundary: 0.2
    - _CrosshatchHighlightsShift: 1
    - _CrosshatchPatternBoundary: 0.15
    - _CrosshatchPatternShift: 0.5
    - _CrosshatchShift: 1
    - _CrosshatchTiling: 2
    - _Cull: 2
    - _Cutoff: 0.5
    - _DetailAlbedoMapScale: 1
    - _DetailNormalMapScale: 1
    - _DstBlend: 0
    - _EnvironmentReflections: 1
    - _GlossMapScale: 1
    - _Glossiness: 0
    - _GlossyReflections: 0
    - _Metallic: 0
    - _OcclusionStrength: 1
    - _Parallax: 0.005
    - _QueueOffset: 0
    - _ReceiveShadows: 1
    - _RimStrength: 1
    - _ShallowNormalBoostEnabled: 1
    - _ShallowNormalLightingBoost: 0.3
    - _ShallowNormalSharpness: 3
    - _Smoothness: 0.05
    - _SmoothnessTextureChannel: 0
    - _SpecMultipler: 0.85
    - _SpecularHighlights: 1
    - _SrcBlend: 1
    - _Surface: 0
    - _WorkflowMode: 1
    - _ZWrite: 1
    m_Colors:
    - Color_2043F254: {r: 1, g: 1, b: 1, a: 0}
    - _BaseColor: {r: 1, g: 1, b: 1, a: 1}
    - _Color: {r: 1, g: 1, b: 1, a: 1}
    - _EmissionColor: {r: 0, g: 0, b: 0, a: 1}
    - _SpecColor: {r: 1, g: 1, b: 1, a: 1}
  m_BuildTextureStacks: []
