{
    "m_SGVersion": 2,
    "m_Type": "UnityEditor.ShaderGraph.GraphData",
    "m_ObjectId": "52fc1890879342939e7ac5b1bc12a7ff",
    "m_Properties": [
        {
            "m_Id": "083b752e898ae986876e3fe687719f24"
        },
        {
            "m_Id": "d5f4a66c8362bc898257172e7083fb4c"
        },
        {
            "m_Id": "30b13947b6a6a586bd2a6078ec9c725c"
        },
        {
            "m_Id": "e48dbca5ff856d88b7cf44cdedfa2d78"
        },
        {
            "m_Id": "c514e66b5d45ea89a637351200e909d0"
        },
        {
            "m_Id": "0ecce5bfa7eb12899ce4a4767779048d"
        },
        {
            "m_Id": "255a048d9a845c8b9f7c57e4c2441434"
        },
        {
            "m_Id": "92182768ba251085929ae1f847bf10f1"
        },
        {
            "m_Id": "a9d12874e737a385b5aaf320be758f86"
        },
        {
            "m_Id": "e0ae9737292c058e80983cc6921e37d5"
        }
    ],
    "m_Keywords": [
        {
            "m_Id": "6418562143a84a879aabd7ab87c73c78"
        },
        {
            "m_Id": "e91e081d63594039972384b0a151c704"
        },
        {
            "m_Id": "f49583273c7d492193f1e04781bc7f6c"
        },
        {
            "m_Id": "e4ef7982106644b6ba4bb5af3ce9c928"
        }
    ],
    "m_Nodes": [
        {
            "m_Id": "ea484e8159e294878a76836abf0641ad"
        },
        {
            "m_Id": "69b5a23cce33798eb1ebbbe4fc022e8d"
        },
        {
            "m_Id": "19f995108302258bb8206590fe91b37d"
        },
        {
            "m_Id": "88e1052162d37985bec320a0f98b7de2"
        },
        {
            "m_Id": "6672cc8efbb16d8b98bf69a2dd07ac96"
        },
        {
            "m_Id": "5dc7ff774acdf6889c4330e7cffd454b"
        },
        {
            "m_Id": "0ff59ac8cf3e6d8ca1c8600af50fac6c"
        },
        {
            "m_Id": "6cf2b0c5912592889720c199a88d52c7"
        },
        {
            "m_Id": "150407a5b5a072869c8bdcd6e0f8528a"
        },
        {
            "m_Id": "4b3fccc4ff287a86a35e1aec53d68efc"
        },
        {
            "m_Id": "a8f5f53d585c7d859dbda84f3519e682"
        },
        {
            "m_Id": "2195656853b4bb879644bea2a8a23fa2"
        },
        {
            "m_Id": "a917ec5af9f4b58f911efafd5ad9d4b3"
        },
        {
            "m_Id": "0a671d6c44867a82b601f05bfea123a3"
        },
        {
            "m_Id": "761c544a13ae3c82ba3566b039112b54"
        },
        {
            "m_Id": "dc2886b158d19387ae1e19d7add9bb6f"
        },
        {
            "m_Id": "5f2923c5f0268d809d68dfb71f87fabf"
        },
        {
            "m_Id": "54756c1b7cf51c8c8db41fcfc6ded4fd"
        },
        {
            "m_Id": "065c61b6fad9c68e877f0056b86daf73"
        },
        {
            "m_Id": "9fe71ce411824ecebf77d63c27923a4d"
        },
        {
            "m_Id": "952a0dab45354920b83bceb055e2bc59"
        },
        {
            "m_Id": "30b8c2c0e4514a5fa88955d1ab47639e"
        },
        {
            "m_Id": "93a3e79c9de14f07878a78c2400f48d7"
        },
        {
            "m_Id": "70b065c2e73341758982df57f5d24ca9"
        },
        {
            "m_Id": "84e29b12303647d6a8bc83d447e266aa"
        }
    ],
    "m_GroupDatas": [],
    "m_StickyNoteDatas": [],
    "m_Edges": [
        {
            "m_OutputSlot": {
                "m_Node": {
                    "m_Id": "065c61b6fad9c68e877f0056b86daf73"
                },
                "m_SlotId": 1
            },
            "m_InputSlot": {
                "m_Node": {
                    "m_Id": "5f2923c5f0268d809d68dfb71f87fabf"
                },
                "m_SlotId": 1
            }
        },
        {
            "m_OutputSlot": {
                "m_Node": {
                    "m_Id": "0a671d6c44867a82b601f05bfea123a3"
                },
                "m_SlotId": 0
            },
            "m_InputSlot": {
                "m_Node": {
                    "m_Id": "a917ec5af9f4b58f911efafd5ad9d4b3"
                },
                "m_SlotId": 1
            }
        },
        {
            "m_OutputSlot": {
                "m_Node": {
                    "m_Id": "0ff59ac8cf3e6d8ca1c8600af50fac6c"
                },
                "m_SlotId": 4
            },
            "m_InputSlot": {
                "m_Node": {
                    "m_Id": "065c61b6fad9c68e877f0056b86daf73"
                },
                "m_SlotId": 0
            }
        },
        {
            "m_OutputSlot": {
                "m_Node": {
                    "m_Id": "0ff59ac8cf3e6d8ca1c8600af50fac6c"
                },
                "m_SlotId": 4
            },
            "m_InputSlot": {
                "m_Node": {
                    "m_Id": "5f2923c5f0268d809d68dfb71f87fabf"
                },
                "m_SlotId": 2
            }
        },
        {
            "m_OutputSlot": {
                "m_Node": {
                    "m_Id": "150407a5b5a072869c8bdcd6e0f8528a"
                },
                "m_SlotId": 2
            },
            "m_InputSlot": {
                "m_Node": {
                    "m_Id": "69b5a23cce33798eb1ebbbe4fc022e8d"
                },
                "m_SlotId": -644689053
            }
        },
        {
            "m_OutputSlot": {
                "m_Node": {
                    "m_Id": "19f995108302258bb8206590fe91b37d"
                },
                "m_SlotId": 0
            },
            "m_InputSlot": {
                "m_Node": {
                    "m_Id": "69b5a23cce33798eb1ebbbe4fc022e8d"
                },
                "m_SlotId": 1800288668
            }
        },
        {
            "m_OutputSlot": {
                "m_Node": {
                    "m_Id": "2195656853b4bb879644bea2a8a23fa2"
                },
                "m_SlotId": 0
            },
            "m_InputSlot": {
                "m_Node": {
                    "m_Id": "0ff59ac8cf3e6d8ca1c8600af50fac6c"
                },
                "m_SlotId": 3
            }
        },
        {
            "m_OutputSlot": {
                "m_Node": {
                    "m_Id": "2195656853b4bb879644bea2a8a23fa2"
                },
                "m_SlotId": 0
            },
            "m_InputSlot": {
                "m_Node": {
                    "m_Id": "54756c1b7cf51c8c8db41fcfc6ded4fd"
                },
                "m_SlotId": 3
            }
        },
        {
            "m_OutputSlot": {
                "m_Node": {
                    "m_Id": "2195656853b4bb879644bea2a8a23fa2"
                },
                "m_SlotId": 0
            },
            "m_InputSlot": {
                "m_Node": {
                    "m_Id": "a917ec5af9f4b58f911efafd5ad9d4b3"
                },
                "m_SlotId": 3
            }
        },
        {
            "m_OutputSlot": {
                "m_Node": {
                    "m_Id": "4b3fccc4ff287a86a35e1aec53d68efc"
                },
                "m_SlotId": 0
            },
            "m_InputSlot": {
                "m_Node": {
                    "m_Id": "150407a5b5a072869c8bdcd6e0f8528a"
                },
                "m_SlotId": 1
            }
        },
        {
            "m_OutputSlot": {
                "m_Node": {
                    "m_Id": "5dc7ff774acdf6889c4330e7cffd454b"
                },
                "m_SlotId": 0
            },
            "m_InputSlot": {
                "m_Node": {
                    "m_Id": "69b5a23cce33798eb1ebbbe4fc022e8d"
                },
                "m_SlotId": -1064812643
            }
        },
        {
            "m_OutputSlot": {
                "m_Node": {
                    "m_Id": "5f2923c5f0268d809d68dfb71f87fabf"
                },
                "m_SlotId": 0
            },
            "m_InputSlot": {
                "m_Node": {
                    "m_Id": "150407a5b5a072869c8bdcd6e0f8528a"
                },
                "m_SlotId": 0
            }
        },
        {
            "m_OutputSlot": {
                "m_Node": {
                    "m_Id": "6672cc8efbb16d8b98bf69a2dd07ac96"
                },
                "m_SlotId": 0
            },
            "m_InputSlot": {
                "m_Node": {
                    "m_Id": "ea484e8159e294878a76836abf0641ad"
                },
                "m_SlotId": 0
            }
        },
        {
            "m_OutputSlot": {
                "m_Node": {
                    "m_Id": "69b5a23cce33798eb1ebbbe4fc022e8d"
                },
                "m_SlotId": 1
            },
            "m_InputSlot": {
                "m_Node": {
                    "m_Id": "93a3e79c9de14f07878a78c2400f48d7"
                },
                "m_SlotId": 0
            }
        },
        {
            "m_OutputSlot": {
                "m_Node": {
                    "m_Id": "6cf2b0c5912592889720c199a88d52c7"
                },
                "m_SlotId": 0
            },
            "m_InputSlot": {
                "m_Node": {
                    "m_Id": "69b5a23cce33798eb1ebbbe4fc022e8d"
                },
                "m_SlotId": -1860941404
            }
        },
        {
            "m_OutputSlot": {
                "m_Node": {
                    "m_Id": "761c544a13ae3c82ba3566b039112b54"
                },
                "m_SlotId": 0
            },
            "m_InputSlot": {
                "m_Node": {
                    "m_Id": "54756c1b7cf51c8c8db41fcfc6ded4fd"
                },
                "m_SlotId": 1
            }
        },
        {
            "m_OutputSlot": {
                "m_Node": {
                    "m_Id": "88e1052162d37985bec320a0f98b7de2"
                },
                "m_SlotId": 0
            },
            "m_InputSlot": {
                "m_Node": {
                    "m_Id": "0ff59ac8cf3e6d8ca1c8600af50fac6c"
                },
                "m_SlotId": 1
            }
        },
        {
            "m_OutputSlot": {
                "m_Node": {
                    "m_Id": "a8f5f53d585c7d859dbda84f3519e682"
                },
                "m_SlotId": 0
            },
            "m_InputSlot": {
                "m_Node": {
                    "m_Id": "69b5a23cce33798eb1ebbbe4fc022e8d"
                },
                "m_SlotId": -1364875712
            }
        },
        {
            "m_OutputSlot": {
                "m_Node": {
                    "m_Id": "a917ec5af9f4b58f911efafd5ad9d4b3"
                },
                "m_SlotId": 4
            },
            "m_InputSlot": {
                "m_Node": {
                    "m_Id": "ea484e8159e294878a76836abf0641ad"
                },
                "m_SlotId": 1
            }
        },
        {
            "m_OutputSlot": {
                "m_Node": {
                    "m_Id": "dc2886b158d19387ae1e19d7add9bb6f"
                },
                "m_SlotId": 0
            },
            "m_InputSlot": {
                "m_Node": {
                    "m_Id": "69b5a23cce33798eb1ebbbe4fc022e8d"
                },
                "m_SlotId": 109679507
            }
        },
        {
            "m_OutputSlot": {
                "m_Node": {
                    "m_Id": "ea484e8159e294878a76836abf0641ad"
                },
                "m_SlotId": 2
            },
            "m_InputSlot": {
                "m_Node": {
                    "m_Id": "69b5a23cce33798eb1ebbbe4fc022e8d"
                },
                "m_SlotId": 1179521780
            }
        }
    ],
    "m_VertexContext": {
        "m_Position": {
            "x": 6624.0,
            "y": 451.0
        },
        "m_Blocks": [
            {
                "m_Id": "9fe71ce411824ecebf77d63c27923a4d"
            },
            {
                "m_Id": "952a0dab45354920b83bceb055e2bc59"
            },
            {
                "m_Id": "30b8c2c0e4514a5fa88955d1ab47639e"
            }
        ]
    },
    "m_FragmentContext": {
        "m_Position": {
            "x": 6624.0,
            "y": 651.0
        },
        "m_Blocks": [
            {
                "m_Id": "93a3e79c9de14f07878a78c2400f48d7"
            },
            {
                "m_Id": "70b065c2e73341758982df57f5d24ca9"
            },
            {
                "m_Id": "84e29b12303647d6a8bc83d447e266aa"
            }
        ]
    },
    "m_PreviewData": {
        "serializedMesh": {
            "m_SerializedMesh": "{\"mesh\":{\"fileID\":10200,\"guid\":\"0000000000000000e000000000000000\",\"type\":0}}",
            "m_Guid": ""
        }
    },
    "m_Path": "Shader Graphs",
    "m_ConcretePrecision": 0,
    "m_OutputNode": {
        "m_Id": ""
    },
    "m_ActiveTargets": [
        {
            "m_Id": "2668acc46b6c433cb586a50fc0df8200"
        }
    ]
}

{
    "m_SGVersion": 0,
    "m_Type": "UnityEditor.ShaderGraph.Vector1MaterialSlot",
    "m_ObjectId": "00d27f44cdd01882854cdc66453551b9",
    "m_Id": 5,
    "m_DisplayName": "G",
    "m_SlotType": 1,
    "m_Hidden": false,
    "m_ShaderOutputName": "G",
    "m_StageCapability": 2,
    "m_Value": 0.0,
    "m_DefaultValue": 0.0,
    "m_Labels": [
        "X"
    ]
}

{
    "m_SGVersion": 0,
    "m_Type": "UnityEditor.ShaderGraph.Vector4MaterialSlot",
    "m_ObjectId": "013e8fbe8775e48f9e428b9e05746431",
    "m_Id": -1860941404,
    "m_DisplayName": "Tint",
    "m_SlotType": 0,
    "m_Hidden": false,
    "m_ShaderOutputName": "Vector4_CD5707D5",
    "m_StageCapability": 2,
    "m_Value": {
        "x": 1.0,
        "y": 1.0,
        "z": 1.0,
        "w": 1.0
    },
    "m_DefaultValue": {
        "x": 0.0,
        "y": 0.0,
        "z": 0.0,
        "w": 0.0
    },
    "m_Labels": []
}

{
    "m_SGVersion": 0,
    "m_Type": "UnityEditor.ShaderGraph.Texture2DInputMaterialSlot",
    "m_ObjectId": "0441848a494c5386874c44374fd29e7f",
    "m_Id": 1,
    "m_DisplayName": "Texture",
    "m_SlotType": 0,
    "m_Hidden": false,
    "m_ShaderOutputName": "Texture",
    "m_StageCapability": 3,
    "m_Texture": {
        "m_SerializedTexture": "{\"texture\":{\"instanceID\":0}}",
        "m_Guid": ""
    },
    "m_DefaultType": 0
}

{
    "m_SGVersion": 0,
    "m_Type": "UnityEditor.ShaderGraph.OneMinusNode",
    "m_ObjectId": "065c61b6fad9c68e877f0056b86daf73",
    "m_Group": {
        "m_Id": ""
    },
    "m_Name": "One Minus",
    "m_DrawState": {
        "m_Expanded": true,
        "m_Position": {
            "serializedVersion": "2",
            "x": 5394.0,
            "y": 924.0,
            "width": 126.0,
            "height": 94.0
        }
    },
    "m_Slots": [
        {
            "m_Id": "179d8bdeeef2648a804897c4717ade9e"
        },
        {
            "m_Id": "07c547a9b9c4cc8bad8091cb5fce0d5b"
        }
    ],
    "synonyms": [],
    "m_Precision": 0,
    "m_PreviewExpanded": false,
    "m_CustomColors": {
        "m_SerializableColors": []
    }
}

{
    "m_SGVersion": 0,
    "m_Type": "UnityEditor.ShaderGraph.DynamicValueMaterialSlot",
    "m_ObjectId": "079f17f207bd678b940cf4556f9e5ca6",
    "m_Id": 2,
    "m_DisplayName": "Out",
    "m_SlotType": 1,
    "m_Hidden": false,
    "m_ShaderOutputName": "Out",
    "m_StageCapability": 3,
    "m_Value": {
        "e00": 0.0,
        "e01": 0.0,
        "e02": 0.0,
        "e03": 0.0,
        "e10": 0.0,
        "e11": 0.0,
        "e12": 0.0,
        "e13": 0.0,
        "e20": 0.0,
        "e21": 0.0,
        "e22": 0.0,
        "e23": 0.0,
        "e30": 0.0,
        "e31": 0.0,
        "e32": 0.0,
        "e33": 0.0
    },
    "m_DefaultValue": {
        "e00": 1.0,
        "e01": 0.0,
        "e02": 0.0,
        "e03": 0.0,
        "e10": 0.0,
        "e11": 1.0,
        "e12": 0.0,
        "e13": 0.0,
        "e20": 0.0,
        "e21": 0.0,
        "e22": 1.0,
        "e23": 0.0,
        "e30": 0.0,
        "e31": 0.0,
        "e32": 0.0,
        "e33": 1.0
    }
}

{
    "m_SGVersion": 0,
    "m_Type": "UnityEditor.ShaderGraph.DynamicVectorMaterialSlot",
    "m_ObjectId": "07c547a9b9c4cc8bad8091cb5fce0d5b",
    "m_Id": 1,
    "m_DisplayName": "Out",
    "m_SlotType": 1,
    "m_Hidden": false,
    "m_ShaderOutputName": "Out",
    "m_StageCapability": 3,
    "m_Value": {
        "x": 0.0,
        "y": 0.0,
        "z": 0.0,
        "w": 0.0
    },
    "m_DefaultValue": {
        "x": 0.0,
        "y": 0.0,
        "z": 0.0,
        "w": 0.0
    }
}

{
    "m_SGVersion": 2,
    "m_Type": "UnityEditor.ShaderGraph.Internal.ColorShaderProperty",
    "m_ObjectId": "083b752e898ae986876e3fe687719f24",
    "m_Guid": {
        "m_GuidSerialized": "5c2a91f9-8e29-43bd-9efe-35e54aaf6ce5"
    },
    "m_Name": "Tint",
    "m_DefaultReferenceName": "Color_2043F254",
    "m_OverrideReferenceName": "",
    "m_GeneratePropertyBlock": true,
    "m_Precision": 0,
    "overrideHLSLDeclaration": false,
    "hlslDeclarationOverride": 0,
    "m_Hidden": false,
    "m_Value": {
        "r": 1.0,
        "g": 1.0,
        "b": 1.0,
        "a": 0.0
    },
    "m_ColorMode": 0
}

{
    "m_SGVersion": 0,
    "m_Type": "UnityEditor.ShaderGraph.PropertyNode",
    "m_ObjectId": "0a671d6c44867a82b601f05bfea123a3",
    "m_Group": {
        "m_Id": ""
    },
    "m_Name": "Property",
    "m_DrawState": {
        "m_Expanded": true,
        "m_Position": {
            "serializedVersion": "2",
            "x": 4850.9296875,
            "y": 411.2975158691406,
            "width": 0.0,
            "height": 0.0
        }
    },
    "m_Slots": [
        {
            "m_Id": "c0c1196fdada608fb36a17d5a757728f"
        }
    ],
    "synonyms": [],
    "m_Precision": 0,
    "m_PreviewExpanded": true,
    "m_CustomColors": {
        "m_SerializableColors": []
    },
    "m_Property": {
        "m_Id": "92182768ba251085929ae1f847bf10f1"
    }
}

{
    "m_SGVersion": 0,
    "m_Type": "UnityEditor.ShaderGraph.Vector1MaterialSlot",
    "m_ObjectId": "0c91ff8e2422dd81bd123a16ee0b3110",
    "m_Id": 6,
    "m_DisplayName": "B",
    "m_SlotType": 1,
    "m_Hidden": false,
    "m_ShaderOutputName": "B",
    "m_StageCapability": 2,
    "m_Value": 0.0,
    "m_DefaultValue": 0.0,
    "m_Labels": [
        "X"
    ]
}

{
    "m_SGVersion": 1,
    "m_Type": "UnityEditor.ShaderGraph.Internal.Vector1ShaderProperty",
    "m_ObjectId": "0ecce5bfa7eb12899ce4a4767779048d",
    "m_Guid": {
        "m_GuidSerialized": "f75bfce4-d86e-4e07-9539-b56748576c26"
    },
    "m_Name": "Specularity Multiplier",
    "m_DefaultReferenceName": "Vector1_8DE3D428",
    "m_OverrideReferenceName": "",
    "m_GeneratePropertyBlock": true,
    "m_Precision": 0,
    "overrideHLSLDeclaration": false,
    "hlslDeclarationOverride": 0,
    "m_Hidden": false,
    "m_Value": 1.0,
    "m_FloatType": 1,
    "m_RangeValues": {
        "x": 0.0,
        "y": 1.0
    }
}

{
    "m_SGVersion": 0,
    "m_Type": "UnityEditor.ShaderGraph.SampleTexture2DNode",
    "m_ObjectId": "0ff59ac8cf3e6d8ca1c8600af50fac6c",
    "m_Group": {
        "m_Id": ""
    },
    "m_Name": "Sample Texture 2D",
    "m_DrawState": {
        "m_Expanded": true,
        "m_Position": {
            "serializedVersion": "2",
            "x": 5051.0,
            "y": 603.0,
            "width": 182.00001525878907,
            "height": 251.00001525878907
        }
    },
    "m_Slots": [
        {
            "m_Id": "5fa471cddc6e7085bac5d7dce4869992"
        },
        {
            "m_Id": "7bf012170c90ca80a4807afbf19c3d76"
        },
        {
            "m_Id": "00d27f44cdd01882854cdc66453551b9"
        },
        {
            "m_Id": "bb48cd0053d9068b99adf00773850793"
        },
        {
            "m_Id": "bd3657d25197a789b55207e632f9ea70"
        },
        {
            "m_Id": "0441848a494c5386874c44374fd29e7f"
        },
        {
            "m_Id": "c10b2e94adf1d5868ce36f6a363978ec"
        },
        {
            "m_Id": "469d5a96b32123889f6bc0fcdcc8233d"
        }
    ],
    "synonyms": [],
    "m_Precision": 0,
    "m_PreviewExpanded": false,
    "m_CustomColors": {
        "m_SerializableColors": []
    },
    "m_TextureType": 0,
    "m_NormalMapSpace": 0
}

{
    "m_SGVersion": 0,
    "m_Type": "UnityEditor.ShaderGraph.MultiplyNode",
    "m_ObjectId": "150407a5b5a072869c8bdcd6e0f8528a",
    "m_Group": {
        "m_Id": ""
    },
    "m_Name": "Multiply",
    "m_DrawState": {
        "m_Expanded": true,
        "m_Position": {
            "serializedVersion": "2",
            "x": 5724.0,
            "y": 924.0,
            "width": 124.0,
            "height": 118.0
        }
    },
    "m_Slots": [
        {
            "m_Id": "a4e339eda740a880be060fe4712bb693"
        },
        {
            "m_Id": "15480f2f18dd4387aec19e785d1bdfa5"
        },
        {
            "m_Id": "079f17f207bd678b940cf4556f9e5ca6"
        }
    ],
    "synonyms": [],
    "m_Precision": 0,
    "m_PreviewExpanded": false,
    "m_CustomColors": {
        "m_SerializableColors": []
    }
}

{
    "m_SGVersion": 0,
    "m_Type": "UnityEditor.ShaderGraph.DynamicValueMaterialSlot",
    "m_ObjectId": "15480f2f18dd4387aec19e785d1bdfa5",
    "m_Id": 1,
    "m_DisplayName": "B",
    "m_SlotType": 0,
    "m_Hidden": false,
    "m_ShaderOutputName": "B",
    "m_StageCapability": 3,
    "m_Value": {
        "e00": 2.0,
        "e01": 2.0,
        "e02": 2.0,
        "e03": 2.0,
        "e10": 2.0,
        "e11": 2.0,
        "e12": 2.0,
        "e13": 2.0,
        "e20": 2.0,
        "e21": 2.0,
        "e22": 2.0,
        "e23": 2.0,
        "e30": 2.0,
        "e31": 2.0,
        "e32": 2.0,
        "e33": 2.0
    },
    "m_DefaultValue": {
        "e00": 1.0,
        "e01": 0.0,
        "e02": 0.0,
        "e03": 0.0,
        "e10": 0.0,
        "e11": 1.0,
        "e12": 0.0,
        "e13": 0.0,
        "e20": 0.0,
        "e21": 0.0,
        "e22": 1.0,
        "e23": 0.0,
        "e30": 0.0,
        "e31": 0.0,
        "e32": 0.0,
        "e33": 1.0
    }
}

{
    "m_SGVersion": 0,
    "m_Type": "UnityEditor.ShaderGraph.DynamicVectorMaterialSlot",
    "m_ObjectId": "179d8bdeeef2648a804897c4717ade9e",
    "m_Id": 0,
    "m_DisplayName": "In",
    "m_SlotType": 0,
    "m_Hidden": false,
    "m_ShaderOutputName": "In",
    "m_StageCapability": 3,
    "m_Value": {
        "x": 1.0,
        "y": 1.0,
        "z": 1.0,
        "w": 1.0
    },
    "m_DefaultValue": {
        "x": 0.0,
        "y": 0.0,
        "z": 0.0,
        "w": 0.0
    }
}

{
    "m_SGVersion": 0,
    "m_Type": "UnityEditor.ShaderGraph.Vector1MaterialSlot",
    "m_ObjectId": "193296a9a62ec286af904f8dae2b2086",
    "m_Id": 7,
    "m_DisplayName": "A",
    "m_SlotType": 1,
    "m_Hidden": false,
    "m_ShaderOutputName": "A",
    "m_StageCapability": 2,
    "m_Value": 0.0,
    "m_DefaultValue": 0.0,
    "m_Labels": [
        "X"
    ]
}

{
    "m_SGVersion": 0,
    "m_Type": "UnityEditor.ShaderGraph.PropertyNode",
    "m_ObjectId": "19f995108302258bb8206590fe91b37d",
    "m_Group": {
        "m_Id": ""
    },
    "m_Name": "Property",
    "m_DrawState": {
        "m_Expanded": true,
        "m_Position": {
            "serializedVersion": "2",
            "x": 5717.0,
            "y": 549.0,
            "width": 121.0,
            "height": 34.0
        }
    },
    "m_Slots": [
        {
            "m_Id": "3857975e45015b8cbb54a50c26d79564"
        }
    ],
    "synonyms": [],
    "m_Precision": 0,
    "m_PreviewExpanded": true,
    "m_CustomColors": {
        "m_SerializableColors": []
    },
    "m_Property": {
        "m_Id": "d5f4a66c8362bc898257172e7083fb4c"
    }
}

{
    "m_SGVersion": 0,
    "m_Type": "UnityEditor.ShaderGraph.DynamicVectorMaterialSlot",
    "m_ObjectId": "1f2e157bfda6ba8db39b652e532770e1",
    "m_Id": 1,
    "m_DisplayName": "On",
    "m_SlotType": 0,
    "m_Hidden": false,
    "m_ShaderOutputName": "On",
    "m_StageCapability": 3,
    "m_Value": {
        "x": 0.0,
        "y": 0.0,
        "z": 0.0,
        "w": 0.0
    },
    "m_DefaultValue": {
        "x": 0.0,
        "y": 0.0,
        "z": 0.0,
        "w": 0.0
    }
}

{
    "m_SGVersion": 0,
    "m_Type": "UnityEditor.ShaderGraph.Vector1MaterialSlot",
    "m_ObjectId": "21509b9317a7e280ab0e2105038c1bd4",
    "m_Id": 4,
    "m_DisplayName": "R",
    "m_SlotType": 1,
    "m_Hidden": false,
    "m_ShaderOutputName": "R",
    "m_StageCapability": 2,
    "m_Value": 0.0,
    "m_DefaultValue": 0.0,
    "m_Labels": [
        "X"
    ]
}

{
    "m_SGVersion": 0,
    "m_Type": "UnityEditor.ShaderGraph.SamplerStateNode",
    "m_ObjectId": "2195656853b4bb879644bea2a8a23fa2",
    "m_Group": {
        "m_Id": ""
    },
    "m_Name": "Sampler State",
    "m_DrawState": {
        "m_Expanded": true,
        "m_Position": {
            "serializedVersion": "2",
            "x": 4590.0,
            "y": 684.0,
            "width": 145.0,
            "height": 138.0
        }
    },
    "m_Slots": [
        {
            "m_Id": "f1e71fce7469c48299149ca07ce64f99"
        }
    ],
    "synonyms": [],
    "m_Precision": 0,
    "m_PreviewExpanded": true,
    "m_CustomColors": {
        "m_SerializableColors": []
    },
    "m_filter": 1,
    "m_wrap": 1
}

{
    "m_SGVersion": 0,
    "m_Type": "UnityEditor.ShaderGraph.Internal.Texture2DShaderProperty",
    "m_ObjectId": "255a048d9a845c8b9f7c57e4c2441434",
    "m_Guid": {
        "m_GuidSerialized": "e85aee19-efca-4bce-b088-728a0dbd5751"
    },
    "m_Name": "Normal Map",
    "m_DefaultReferenceName": "Texture2D_60FBD742",
    "m_OverrideReferenceName": "",
    "m_GeneratePropertyBlock": true,
    "m_Precision": 0,
    "overrideHLSLDeclaration": false,
    "hlslDeclarationOverride": 0,
    "m_Hidden": false,
    "m_Value": {
        "m_SerializedTexture": "{\"texture\":{\"instanceID\":0}}",
        "m_Guid": ""
    },
    "m_Modifiable": true,
    "m_DefaultType": 3
}

{
    "m_SGVersion": 0,
    "m_Type": "UnityEditor.Rendering.Universal.ShaderGraph.UniversalTarget",
    "m_ObjectId": "2668acc46b6c433cb586a50fc0df8200",
    "m_ActiveSubTarget": {
        "m_Id": "78cab0cef149406db6f60ff8da3d0a82"
    },
    "m_SurfaceType": 0,
    "m_AlphaMode": 0,
    "m_TwoSided": false,
    "m_AlphaClip": false,
    "m_CustomEditorGUI": ""
}

{
    "m_SGVersion": 1,
    "m_Type": "UnityEditor.ShaderGraph.Internal.Vector1ShaderProperty",
    "m_ObjectId": "30b13947b6a6a586bd2a6078ec9c725c",
    "m_Guid": {
        "m_GuidSerialized": "9c474a2a-4ff1-4ff1-a77d-d4ad208aa64f"
    },
    "m_Name": "Rim Strength",
    "m_DefaultReferenceName": "Vector1_6CA1E8B0",
    "m_OverrideReferenceName": "",
    "m_GeneratePropertyBlock": true,
    "m_Precision": 0,
    "overrideHLSLDeclaration": false,
    "hlslDeclarationOverride": 0,
    "m_Hidden": false,
    "m_Value": 0.25,
    "m_FloatType": 1,
    "m_RangeValues": {
        "x": 0.0010000000474974514,
        "y": 1.0
    }
}

{
    "m_SGVersion": 0,
    "m_Type": "UnityEditor.ShaderGraph.BlockNode",
    "m_ObjectId": "30b8c2c0e4514a5fa88955d1ab47639e",
    "m_Group": {
        "m_Id": ""
    },
    "m_Name": "VertexDescription.Tangent",
    "m_DrawState": {
        "m_Expanded": true,
        "m_Position": {
            "serializedVersion": "2",
            "x": 0.0,
            "y": 0.0,
            "width": 0.0,
            "height": 0.0
        }
    },
    "m_Slots": [
        {
            "m_Id": "c18eb3a2699f42f99d7fbdb0fdb1c5ed"
        }
    ],
    "synonyms": [],
    "m_Precision": 0,
    "m_PreviewExpanded": true,
    "m_CustomColors": {
        "m_SerializableColors": []
    },
    "m_SerializedDescriptor": "VertexDescription.Tangent"
}

{
    "m_SGVersion": 0,
    "m_Type": "UnityEditor.ShaderGraph.Vector1MaterialSlot",
    "m_ObjectId": "30bc9425b70e158ba53904cb9331021d",
    "m_Id": 7,
    "m_DisplayName": "A",
    "m_SlotType": 1,
    "m_Hidden": false,
    "m_ShaderOutputName": "A",
    "m_StageCapability": 2,
    "m_Value": 0.0,
    "m_DefaultValue": 0.0,
    "m_Labels": [
        "X"
    ]
}

{
    "m_SGVersion": 0,
    "m_Type": "UnityEditor.ShaderGraph.Texture2DInputMaterialSlot",
    "m_ObjectId": "3545906241ba3e839ca485ca5b134326",
    "m_Id": -1064812643,
    "m_DisplayName": "Ramp",
    "m_SlotType": 0,
    "m_Hidden": false,
    "m_ShaderOutputName": "Texture2D_BDAF59B4",
    "m_StageCapability": 2,
    "m_Texture": {
        "m_SerializedTexture": "{\"texture\":{\"instanceID\":0}}",
        "m_Guid": ""
    },
    "m_DefaultType": 0
}

{
    "m_SGVersion": 0,
    "m_Type": "UnityEditor.ShaderGraph.Texture2DMaterialSlot",
    "m_ObjectId": "37d0a55921d66d888f8917ceeb09221e",
    "m_Id": 0,
    "m_DisplayName": "Ramp",
    "m_SlotType": 1,
    "m_Hidden": false,
    "m_ShaderOutputName": "Out",
    "m_StageCapability": 3
}

{
    "m_SGVersion": 0,
    "m_Type": "UnityEditor.ShaderGraph.Texture2DMaterialSlot",
    "m_ObjectId": "3857975e45015b8cbb54a50c26d79564",
    "m_Id": 0,
    "m_DisplayName": "Albedo",
    "m_SlotType": 1,
    "m_Hidden": false,
    "m_ShaderOutputName": "Out",
    "m_StageCapability": 3
}

{
    "m_SGVersion": 0,
    "m_Type": "UnityEditor.ShaderGraph.Texture2DMaterialSlot",
    "m_ObjectId": "4043ecae9e995c83881275520419d552",
    "m_Id": 0,
    "m_DisplayName": "Smoothness Map",
    "m_SlotType": 1,
    "m_Hidden": false,
    "m_ShaderOutputName": "Out",
    "m_StageCapability": 3
}

{
    "m_SGVersion": 0,
    "m_Type": "UnityEditor.ShaderGraph.Vector1MaterialSlot",
    "m_ObjectId": "408ed4df3fbfe58298546bb9fc0ac51b",
    "m_Id": -266961137,
    "m_DisplayName": "Occlusion",
    "m_SlotType": 0,
    "m_Hidden": false,
    "m_ShaderOutputName": "Vector1_85E193CA",
    "m_StageCapability": 2,
    "m_Value": 0.0,
    "m_DefaultValue": 0.0,
    "m_Labels": [
        "X"
    ]
}

{
    "m_SGVersion": 0,
    "m_Type": "UnityEditor.ShaderGraph.Texture2DInputMaterialSlot",
    "m_ObjectId": "43580370c8b4358d9caf0da8e155f8fa",
    "m_Id": 1800288668,
    "m_DisplayName": "Albedo",
    "m_SlotType": 0,
    "m_Hidden": false,
    "m_ShaderOutputName": "Texture2D_878F62BD",
    "m_StageCapability": 2,
    "m_Texture": {
        "m_SerializedTexture": "{\"texture\":{\"instanceID\":0}}",
        "m_Guid": ""
    },
    "m_DefaultType": 0
}

{
    "m_SGVersion": 0,
    "m_Type": "UnityEditor.ShaderGraph.DynamicVectorMaterialSlot",
    "m_ObjectId": "44452d7ac112b088ae111c3aff8bb7df",
    "m_Id": 0,
    "m_DisplayName": "Out",
    "m_SlotType": 1,
    "m_Hidden": false,
    "m_ShaderOutputName": "Out",
    "m_StageCapability": 3,
    "m_Value": {
        "x": 0.0,
        "y": 0.0,
        "z": 0.0,
        "w": 0.0
    },
    "m_DefaultValue": {
        "x": 0.0,
        "y": 0.0,
        "z": 0.0,
        "w": 0.0
    }
}

{
    "m_SGVersion": 0,
    "m_Type": "UnityEditor.ShaderGraph.SamplerStateMaterialSlot",
    "m_ObjectId": "469d5a96b32123889f6bc0fcdcc8233d",
    "m_Id": 3,
    "m_DisplayName": "Sampler",
    "m_SlotType": 0,
    "m_Hidden": false,
    "m_ShaderOutputName": "Sampler",
    "m_StageCapability": 3
}

{
    "m_SGVersion": 0,
    "m_Type": "UnityEditor.ShaderGraph.PropertyNode",
    "m_ObjectId": "4b3fccc4ff287a86a35e1aec53d68efc",
    "m_Group": {
        "m_Id": ""
    },
    "m_Name": "Property",
    "m_DrawState": {
        "m_Expanded": true,
        "m_Position": {
            "serializedVersion": "2",
            "x": 5453.0,
            "y": 1035.0,
            "width": 193.0,
            "height": 34.0
        }
    },
    "m_Slots": [
        {
            "m_Id": "a04e4913fe3c1a8f9ddde834dd2b5727"
        }
    ],
    "synonyms": [],
    "m_Precision": 0,
    "m_PreviewExpanded": true,
    "m_CustomColors": {
        "m_SerializableColors": []
    },
    "m_Property": {
        "m_Id": "e48dbca5ff856d88b7cf44cdedfa2d78"
    }
}

{
    "m_SGVersion": 0,
    "m_Type": "UnityEditor.ShaderGraph.SampleTexture2DNode",
    "m_ObjectId": "54756c1b7cf51c8c8db41fcfc6ded4fd",
    "m_Group": {
        "m_Id": ""
    },
    "m_Name": "Sample Texture 2D",
    "m_DrawState": {
        "m_Expanded": true,
        "m_Position": {
            "serializedVersion": "2",
            "x": 5037.0,
            "y": 892.9999389648438,
            "width": 182.0,
            "height": 251.0
        }
    },
    "m_Slots": [
        {
            "m_Id": "7780e3c2af0aa689902a6432eb3f7aae"
        },
        {
            "m_Id": "7b5506b42c85c28b925533f8b9e9533a"
        },
        {
            "m_Id": "abea2dedcd5f8c868e537d270d320a05"
        },
        {
            "m_Id": "0c91ff8e2422dd81bd123a16ee0b3110"
        },
        {
            "m_Id": "193296a9a62ec286af904f8dae2b2086"
        },
        {
            "m_Id": "d3502ffcd978e78fa40b48500acb38b6"
        },
        {
            "m_Id": "7d43b5e51ac0518a9d455fadd3f4c639"
        },
        {
            "m_Id": "b0d8a7ff4dadce8093a3e9d7f9edab18"
        }
    ],
    "synonyms": [],
    "m_Precision": 0,
    "m_PreviewExpanded": false,
    "m_CustomColors": {
        "m_SerializableColors": []
    },
    "m_TextureType": 0,
    "m_NormalMapSpace": 0
}

{
    "m_SGVersion": 0,
    "m_Type": "UnityEditor.ShaderGraph.DynamicValueMaterialSlot",
    "m_ObjectId": "5524c482598404849052884077c6238c",
    "m_Id": 2,
    "m_DisplayName": "Out",
    "m_SlotType": 1,
    "m_Hidden": false,
    "m_ShaderOutputName": "Out",
    "m_StageCapability": 3,
    "m_Value": {
        "e00": 0.0,
        "e01": 0.0,
        "e02": 0.0,
        "e03": 0.0,
        "e10": 0.0,
        "e11": 0.0,
        "e12": 0.0,
        "e13": 0.0,
        "e20": 0.0,
        "e21": 0.0,
        "e22": 0.0,
        "e23": 0.0,
        "e30": 0.0,
        "e31": 0.0,
        "e32": 0.0,
        "e33": 0.0
    },
    "m_DefaultValue": {
        "e00": 1.0,
        "e01": 0.0,
        "e02": 0.0,
        "e03": 0.0,
        "e10": 0.0,
        "e11": 1.0,
        "e12": 0.0,
        "e13": 0.0,
        "e20": 0.0,
        "e21": 0.0,
        "e22": 1.0,
        "e23": 0.0,
        "e30": 0.0,
        "e31": 0.0,
        "e32": 0.0,
        "e33": 1.0
    }
}

{
    "m_SGVersion": 0,
    "m_Type": "UnityEditor.ShaderGraph.DynamicValueMaterialSlot",
    "m_ObjectId": "583d2d6f855e8c8593378bddb3f15218",
    "m_Id": 0,
    "m_DisplayName": "A",
    "m_SlotType": 0,
    "m_Hidden": false,
    "m_ShaderOutputName": "A",
    "m_StageCapability": 3,
    "m_Value": {
        "e00": 0.0,
        "e01": 0.0,
        "e02": 0.0,
        "e03": 0.0,
        "e10": 0.0,
        "e11": 0.0,
        "e12": 0.0,
        "e13": 0.0,
        "e20": 0.0,
        "e21": 0.0,
        "e22": 0.0,
        "e23": 0.0,
        "e30": 0.0,
        "e31": 0.0,
        "e32": 0.0,
        "e33": 0.0
    },
    "m_DefaultValue": {
        "e00": 1.0,
        "e01": 0.0,
        "e02": 0.0,
        "e03": 0.0,
        "e10": 0.0,
        "e11": 1.0,
        "e12": 0.0,
        "e13": 0.0,
        "e20": 0.0,
        "e21": 0.0,
        "e22": 1.0,
        "e23": 0.0,
        "e30": 0.0,
        "e31": 0.0,
        "e32": 0.0,
        "e33": 1.0
    }
}

{
    "m_SGVersion": 0,
    "m_Type": "UnityEditor.ShaderGraph.PropertyNode",
    "m_ObjectId": "5dc7ff774acdf6889c4330e7cffd454b",
    "m_Group": {
        "m_Id": ""
    },
    "m_Name": "Property",
    "m_DrawState": {
        "m_Expanded": true,
        "m_Position": {
            "serializedVersion": "2",
            "x": 5724.0,
            "y": 515.0,
            "width": 114.0,
            "height": 34.0
        }
    },
    "m_Slots": [
        {
            "m_Id": "37d0a55921d66d888f8917ceeb09221e"
        }
    ],
    "synonyms": [],
    "m_Precision": 0,
    "m_PreviewExpanded": true,
    "m_CustomColors": {
        "m_SerializableColors": []
    },
    "m_Property": {
        "m_Id": "c514e66b5d45ea89a637351200e909d0"
    }
}

{
    "m_SGVersion": 0,
    "m_Type": "UnityEditor.ShaderGraph.KeywordNode",
    "m_ObjectId": "5f2923c5f0268d809d68dfb71f87fabf",
    "m_Group": {
        "m_Id": ""
    },
    "m_Name": "Invert Roughness",
    "m_DrawState": {
        "m_Expanded": true,
        "m_Position": {
            "serializedVersion": "2",
            "x": 5552.0,
            "y": 819.0,
            "width": 143.0,
            "height": 118.0
        }
    },
    "m_Slots": [
        {
            "m_Id": "44452d7ac112b088ae111c3aff8bb7df"
        },
        {
            "m_Id": "1f2e157bfda6ba8db39b652e532770e1"
        },
        {
            "m_Id": "bc23c8770875838eac4c81c332b25cab"
        }
    ],
    "synonyms": [],
    "m_Precision": 0,
    "m_PreviewExpanded": false,
    "m_CustomColors": {
        "m_SerializableColors": []
    },
    "m_Keyword": {
        "m_Id": "6418562143a84a879aabd7ab87c73c78"
    }
}

{
    "m_SGVersion": 0,
    "m_Type": "UnityEditor.ShaderGraph.Vector4MaterialSlot",
    "m_ObjectId": "5fa471cddc6e7085bac5d7dce4869992",
    "m_Id": 0,
    "m_DisplayName": "RGBA",
    "m_SlotType": 1,
    "m_Hidden": false,
    "m_ShaderOutputName": "RGBA",
    "m_StageCapability": 2,
    "m_Value": {
        "x": 0.0,
        "y": 0.0,
        "z": 0.0,
        "w": 0.0
    },
    "m_DefaultValue": {
        "x": 0.0,
        "y": 0.0,
        "z": 0.0,
        "w": 0.0
    },
    "m_Labels": []
}

{
    "m_SGVersion": 0,
    "m_Type": "UnityEditor.ShaderGraph.Vector1MaterialSlot",
    "m_ObjectId": "6335a578bccb4148b41adb5038bee752",
    "m_Id": 0,
    "m_DisplayName": "Alpha Clip Threshold",
    "m_SlotType": 0,
    "m_Hidden": false,
    "m_ShaderOutputName": "AlphaClipThreshold",
    "m_StageCapability": 2,
    "m_Value": 0.0,
    "m_DefaultValue": 0.5,
    "m_Labels": []
}

{
    "m_SGVersion": 0,
    "m_Type": "UnityEditor.ShaderGraph.ShaderKeyword",
    "m_ObjectId": "6418562143a84a879aabd7ab87c73c78",
    "m_Guid": {
        "m_GuidSerialized": "4f1e4871-893a-41fb-9f2b-25849de55b0c"
    },
    "m_Name": "Invert Roughness",
    "m_DefaultReferenceName": "BOOLEAN_C5E99559_ON",
    "m_OverrideReferenceName": "",
    "m_GeneratePropertyBlock": true,
    "m_KeywordType": 0,
    "m_KeywordDefinition": 0,
    "m_KeywordScope": 0,
    "m_Entries": [],
    "m_Value": 0,
    "m_IsEditable": true
}

{
    "m_SGVersion": 0,
    "m_Type": "UnityEditor.ShaderGraph.UVMaterialSlot",
    "m_ObjectId": "65c4150fd5def68b961f45178c798e50",
    "m_Id": 2,
    "m_DisplayName": "UV",
    "m_SlotType": 0,
    "m_Hidden": false,
    "m_ShaderOutputName": "UV",
    "m_StageCapability": 3,
    "m_Value": {
        "x": 0.0,
        "y": 0.0
    },
    "m_DefaultValue": {
        "x": 0.0,
        "y": 0.0
    },
    "m_Labels": [
        "X",
        "Y"
    ],
    "m_Channel": 0
}

{
    "m_SGVersion": 0,
    "m_Type": "UnityEditor.ShaderGraph.PropertyNode",
    "m_ObjectId": "6672cc8efbb16d8b98bf69a2dd07ac96",
    "m_Group": {
        "m_Id": ""
    },
    "m_Name": "Property",
    "m_DrawState": {
        "m_Expanded": true,
        "m_Position": {
            "serializedVersion": "2",
            "x": 5364.00048828125,
            "y": 650.0,
            "width": 156.00001525878907,
            "height": 34.0
        }
    },
    "m_Slots": [
        {
            "m_Id": "de859402f402af83b521ae8078bd08f2"
        }
    ],
    "synonyms": [],
    "m_Precision": 0,
    "m_PreviewExpanded": true,
    "m_CustomColors": {
        "m_SerializableColors": []
    },
    "m_Property": {
        "m_Id": "0ecce5bfa7eb12899ce4a4767779048d"
    }
}

{
    "m_SGVersion": 0,
    "m_Type": "UnityEditor.ShaderGraph.SubGraphNode",
    "m_ObjectId": "69b5a23cce33798eb1ebbbe4fc022e8d",
    "m_Group": {
        "m_Id": ""
    },
    "m_Name": "CrossHatchSubgraph",
    "m_DrawState": {
        "m_Expanded": true,
        "m_Position": {
            "serializedVersion": "2",
            "x": 6040.0,
            "y": 535.0,
            "width": 228.99998474121095,
            "height": 470.0
        }
    },
    "m_Slots": [
        {
            "m_Id": "013e8fbe8775e48f9e428b9e05746431"
        },
        {
            "m_Id": "f7072640dee3a68e9d6a4e73a1788fa8"
        },
        {
            "m_Id": "3545906241ba3e839ca485ca5b134326"
        },
        {
            "m_Id": "43580370c8b4358d9caf0da8e155f8fa"
        },
        {
            "m_Id": "cf6b1bda105fdf82b74a46c225ea443a"
        },
        {
            "m_Id": "a04d3a2e3bdced86b88bcbf148b4c5d0"
        },
        {
            "m_Id": "945cf37ace103f83b101246939ba6ad1"
        },
        {
            "m_Id": "408ed4df3fbfe58298546bb9fc0ac51b"
        },
        {
            "m_Id": "c862941f456ea583b89726f7e0fb3afc"
        },
        {
            "m_Id": "c780ef3d19e36788ba5cc39f6e4efbb0"
        }
    ],
    "synonyms": [],
    "m_Precision": 0,
    "m_PreviewExpanded": true,
    "m_CustomColors": {
        "m_SerializableColors": []
    },
    "m_SerializedSubGraph": "{\n    \"subGraph\": {\n        \"fileID\": -5475051401550479605,\n        \"guid\": \"bb7c8ce5bff094344a86feb3b3b8d72f\",\n        \"type\": 3\n    }\n}",
    "m_PropertyGuids": [
        "08f908b1-92ed-4181-8bfc-0b2ff99c6894",
        "ad60d01f-11e9-43db-96ba-bac7b6437757",
        "b80675cf-dc8e-4a65-9f7e-a42a912cfb37",
        "8eaf74b5-46e1-4da5-bcad-a3116083db8c",
        "1871e43c-f9d4-42cd-8915-4fb36059a9b1",
        "c0de5e8c-2690-4c55-a4c4-a07dbe4a1d2d",
        "afa999af-743b-4a8a-8615-021c7f2d2346",
        "6182311e-d094-4e2e-a53f-413c424b0d3f",
        "a2be0895-4cca-455b-a3b7-520de4345751"
    ],
    "m_PropertyIds": [
        -1860941404,
        109679507,
        -1064812643,
        1800288668,
        -1364875712,
        1179521780,
        -644689053,
        -266961137,
        -1133228641
    ]
}

{
    "m_SGVersion": 0,
    "m_Type": "UnityEditor.ShaderGraph.PropertyNode",
    "m_ObjectId": "6cf2b0c5912592889720c199a88d52c7",
    "m_Group": {
        "m_Id": ""
    },
    "m_Name": "Property",
    "m_DrawState": {
        "m_Expanded": true,
        "m_Position": {
            "serializedVersion": "2",
            "x": 5741.0,
            "y": 410.0,
            "width": 97.0,
            "height": 34.0
        }
    },
    "m_Slots": [
        {
            "m_Id": "80c4c674ede0ee8985dce96df5a68d7d"
        }
    ],
    "synonyms": [],
    "m_Precision": 0,
    "m_PreviewExpanded": true,
    "m_CustomColors": {
        "m_SerializableColors": []
    },
    "m_Property": {
        "m_Id": "083b752e898ae986876e3fe687719f24"
    }
}

{
    "m_SGVersion": 0,
    "m_Type": "UnityEditor.ShaderGraph.BlockNode",
    "m_ObjectId": "70b065c2e73341758982df57f5d24ca9",
    "m_Group": {
        "m_Id": ""
    },
    "m_Name": "SurfaceDescription.Alpha",
    "m_DrawState": {
        "m_Expanded": true,
        "m_Position": {
            "serializedVersion": "2",
            "x": 0.0,
            "y": 0.0,
            "width": 0.0,
            "height": 0.0
        }
    },
    "m_Slots": [
        {
            "m_Id": "7b2bcaf999044eea975f0e6df3359626"
        }
    ],
    "synonyms": [],
    "m_Precision": 0,
    "m_PreviewExpanded": true,
    "m_CustomColors": {
        "m_SerializableColors": []
    },
    "m_SerializedDescriptor": "SurfaceDescription.Alpha"
}

{
    "m_SGVersion": 0,
    "m_Type": "UnityEditor.ShaderGraph.PropertyNode",
    "m_ObjectId": "761c544a13ae3c82ba3566b039112b54",
    "m_Group": {
        "m_Id": ""
    },
    "m_Name": "Property",
    "m_DrawState": {
        "m_Expanded": true,
        "m_Position": {
            "serializedVersion": "2",
            "x": 4792.27685546875,
            "y": 1005.29833984375,
            "width": 0.0,
            "height": 0.0
        }
    },
    "m_Slots": [
        {
            "m_Id": "798baaf1c6d64883813046d391d86fc3"
        }
    ],
    "synonyms": [],
    "m_Precision": 0,
    "m_PreviewExpanded": true,
    "m_CustomColors": {
        "m_SerializableColors": []
    },
    "m_Property": {
        "m_Id": "e0ae9737292c058e80983cc6921e37d5"
    }
}

{
    "m_SGVersion": 0,
    "m_Type": "UnityEditor.ShaderGraph.Vector4MaterialSlot",
    "m_ObjectId": "7780e3c2af0aa689902a6432eb3f7aae",
    "m_Id": 0,
    "m_DisplayName": "RGBA",
    "m_SlotType": 1,
    "m_Hidden": false,
    "m_ShaderOutputName": "RGBA",
    "m_StageCapability": 2,
    "m_Value": {
        "x": 0.0,
        "y": 0.0,
        "z": 0.0,
        "w": 0.0
    },
    "m_DefaultValue": {
        "x": 0.0,
        "y": 0.0,
        "z": 0.0,
        "w": 0.0
    },
    "m_Labels": []
}

{
    "m_SGVersion": 0,
    "m_Type": "UnityEditor.Rendering.Universal.ShaderGraph.UniversalUnlitSubTarget",
    "m_ObjectId": "78cab0cef149406db6f60ff8da3d0a82"
}

{
    "m_SGVersion": 0,
    "m_Type": "UnityEditor.ShaderGraph.Texture2DMaterialSlot",
    "m_ObjectId": "798baaf1c6d64883813046d391d86fc3",
    "m_Id": 0,
    "m_DisplayName": "Occlusion Map",
    "m_SlotType": 1,
    "m_Hidden": false,
    "m_ShaderOutputName": "Out",
    "m_StageCapability": 3
}

{
    "m_SGVersion": 0,
    "m_Type": "UnityEditor.ShaderGraph.Vector1MaterialSlot",
    "m_ObjectId": "7b2bcaf999044eea975f0e6df3359626",
    "m_Id": 0,
    "m_DisplayName": "Alpha",
    "m_SlotType": 0,
    "m_Hidden": false,
    "m_ShaderOutputName": "Alpha",
    "m_StageCapability": 2,
    "m_Value": 1.0,
    "m_DefaultValue": 1.0,
    "m_Labels": []
}

{
    "m_SGVersion": 0,
    "m_Type": "UnityEditor.ShaderGraph.Vector1MaterialSlot",
    "m_ObjectId": "7b5506b42c85c28b925533f8b9e9533a",
    "m_Id": 4,
    "m_DisplayName": "R",
    "m_SlotType": 1,
    "m_Hidden": false,
    "m_ShaderOutputName": "R",
    "m_StageCapability": 2,
    "m_Value": 0.0,
    "m_DefaultValue": 0.0,
    "m_Labels": [
        "X"
    ]
}

{
    "m_SGVersion": 0,
    "m_Type": "UnityEditor.ShaderGraph.Vector1MaterialSlot",
    "m_ObjectId": "7bf012170c90ca80a4807afbf19c3d76",
    "m_Id": 4,
    "m_DisplayName": "R",
    "m_SlotType": 1,
    "m_Hidden": false,
    "m_ShaderOutputName": "R",
    "m_StageCapability": 2,
    "m_Value": 0.0,
    "m_DefaultValue": 0.0,
    "m_Labels": [
        "X"
    ]
}

{
    "m_SGVersion": 0,
    "m_Type": "UnityEditor.ShaderGraph.UVMaterialSlot",
    "m_ObjectId": "7d43b5e51ac0518a9d455fadd3f4c639",
    "m_Id": 2,
    "m_DisplayName": "UV",
    "m_SlotType": 0,
    "m_Hidden": false,
    "m_ShaderOutputName": "UV",
    "m_StageCapability": 3,
    "m_Value": {
        "x": 0.0,
        "y": 0.0
    },
    "m_DefaultValue": {
        "x": 0.0,
        "y": 0.0
    },
    "m_Labels": [
        "X",
        "Y"
    ],
    "m_Channel": 0
}

{
    "m_SGVersion": 0,
    "m_Type": "UnityEditor.ShaderGraph.Vector4MaterialSlot",
    "m_ObjectId": "80c4c674ede0ee8985dce96df5a68d7d",
    "m_Id": 0,
    "m_DisplayName": "Tint",
    "m_SlotType": 1,
    "m_Hidden": false,
    "m_ShaderOutputName": "Out",
    "m_StageCapability": 3,
    "m_Value": {
        "x": 0.0,
        "y": 0.0,
        "z": 0.0,
        "w": 0.0
    },
    "m_DefaultValue": {
        "x": 0.0,
        "y": 0.0,
        "z": 0.0,
        "w": 0.0
    },
    "m_Labels": []
}

{
    "m_SGVersion": 0,
    "m_Type": "UnityEditor.ShaderGraph.PositionMaterialSlot",
    "m_ObjectId": "8394028d401b4715af027cb6365080c0",
    "m_Id": 0,
    "m_DisplayName": "Position",
    "m_SlotType": 0,
    "m_Hidden": false,
    "m_ShaderOutputName": "Position",
    "m_StageCapability": 1,
    "m_Value": {
        "x": 0.0,
        "y": 0.0,
        "z": 0.0
    },
    "m_DefaultValue": {
        "x": 0.0,
        "y": 0.0,
        "z": 0.0
    },
    "m_Labels": [],
    "m_Space": 0
}

{
    "m_SGVersion": 0,
    "m_Type": "UnityEditor.ShaderGraph.BlockNode",
    "m_ObjectId": "84e29b12303647d6a8bc83d447e266aa",
    "m_Group": {
        "m_Id": ""
    },
    "m_Name": "SurfaceDescription.AlphaClipThreshold",
    "m_DrawState": {
        "m_Expanded": true,
        "m_Position": {
            "serializedVersion": "2",
            "x": 0.0,
            "y": 0.0,
            "width": 0.0,
            "height": 0.0
        }
    },
    "m_Slots": [
        {
            "m_Id": "6335a578bccb4148b41adb5038bee752"
        }
    ],
    "synonyms": [],
    "m_Precision": 0,
    "m_PreviewExpanded": true,
    "m_CustomColors": {
        "m_SerializableColors": []
    },
    "m_SerializedDescriptor": "SurfaceDescription.AlphaClipThreshold"
}

{
    "m_SGVersion": 0,
    "m_Type": "UnityEditor.ShaderGraph.PropertyNode",
    "m_ObjectId": "88e1052162d37985bec320a0f98b7de2",
    "m_Group": {
        "m_Id": ""
    },
    "m_Name": "Property",
    "m_DrawState": {
        "m_Expanded": true,
        "m_Position": {
            "serializedVersion": "2",
            "x": 4812.0,
            "y": 566.0,
            "width": 176.0,
            "height": 34.0
        }
    },
    "m_Slots": [
        {
            "m_Id": "4043ecae9e995c83881275520419d552"
        }
    ],
    "synonyms": [],
    "m_Precision": 0,
    "m_PreviewExpanded": true,
    "m_CustomColors": {
        "m_SerializableColors": []
    },
    "m_Property": {
        "m_Id": "a9d12874e737a385b5aaf320be758f86"
    }
}

{
    "m_SGVersion": 0,
    "m_Type": "UnityEditor.ShaderGraph.Texture2DInputMaterialSlot",
    "m_ObjectId": "8b66e23c9cc6e68aacdb4b63bb482076",
    "m_Id": 1,
    "m_DisplayName": "Texture",
    "m_SlotType": 0,
    "m_Hidden": false,
    "m_ShaderOutputName": "Texture",
    "m_StageCapability": 3,
    "m_Texture": {
        "m_SerializedTexture": "{\"texture\":{\"instanceID\":0}}",
        "m_Guid": ""
    },
    "m_DefaultType": 0
}

{
    "m_SGVersion": 0,
    "m_Type": "UnityEditor.ShaderGraph.Texture2DMaterialSlot",
    "m_ObjectId": "8ec7b46e84838f8b8c25f648327e1cc4",
    "m_Id": 0,
    "m_DisplayName": "Normal Map",
    "m_SlotType": 1,
    "m_Hidden": false,
    "m_ShaderOutputName": "Out",
    "m_StageCapability": 3
}

{
    "m_SGVersion": 0,
    "m_Type": "UnityEditor.ShaderGraph.Internal.Texture2DShaderProperty",
    "m_ObjectId": "92182768ba251085929ae1f847bf10f1",
    "m_Guid": {
        "m_GuidSerialized": "687aeefe-6916-4ff3-9f72-0bba0ba99a6c"
    },
    "m_Name": "Specularity Map",
    "m_DefaultReferenceName": "Texture2D_E101F3E8",
    "m_OverrideReferenceName": "",
    "m_GeneratePropertyBlock": true,
    "m_Precision": 0,
    "overrideHLSLDeclaration": false,
    "hlslDeclarationOverride": 0,
    "m_Hidden": false,
    "m_Value": {
        "m_SerializedTexture": "{\"texture\":{\"instanceID\":0}}",
        "m_Guid": ""
    },
    "m_Modifiable": true,
    "m_DefaultType": 0
}

{
    "m_SGVersion": 0,
    "m_Type": "UnityEditor.ShaderGraph.BlockNode",
    "m_ObjectId": "93a3e79c9de14f07878a78c2400f48d7",
    "m_Group": {
        "m_Id": ""
    },
    "m_Name": "SurfaceDescription.BaseColor",
    "m_DrawState": {
        "m_Expanded": true,
        "m_Position": {
            "serializedVersion": "2",
            "x": 0.0,
            "y": 0.0,
            "width": 0.0,
            "height": 0.0
        }
    },
    "m_Slots": [
        {
            "m_Id": "b288658fc559400fb66d4b1b146d71f4"
        }
    ],
    "synonyms": [],
    "m_Precision": 0,
    "m_PreviewExpanded": true,
    "m_CustomColors": {
        "m_SerializableColors": []
    },
    "m_SerializedDescriptor": "SurfaceDescription.BaseColor"
}

{
    "m_SGVersion": 0,
    "m_Type": "UnityEditor.ShaderGraph.Vector1MaterialSlot",
    "m_ObjectId": "945cf37ace103f83b101246939ba6ad1",
    "m_Id": -644689053,
    "m_DisplayName": "Smoothness",
    "m_SlotType": 0,
    "m_Hidden": false,
    "m_ShaderOutputName": "Vector1_774B03A3",
    "m_StageCapability": 2,
    "m_Value": 0.5,
    "m_DefaultValue": 0.0,
    "m_Labels": [
        "X"
    ]
}

{
    "m_SGVersion": 0,
    "m_Type": "UnityEditor.ShaderGraph.BlockNode",
    "m_ObjectId": "952a0dab45354920b83bceb055e2bc59",
    "m_Group": {
        "m_Id": ""
    },
    "m_Name": "VertexDescription.Normal",
    "m_DrawState": {
        "m_Expanded": true,
        "m_Position": {
            "serializedVersion": "2",
            "x": 0.0,
            "y": 0.0,
            "width": 0.0,
            "height": 0.0
        }
    },
    "m_Slots": [
        {
            "m_Id": "bd80e926648a447ab374fbca9a26f76b"
        }
    ],
    "synonyms": [],
    "m_Precision": 0,
    "m_PreviewExpanded": true,
    "m_CustomColors": {
        "m_SerializableColors": []
    },
    "m_SerializedDescriptor": "VertexDescription.Normal"
}

{
    "m_SGVersion": 0,
    "m_Type": "UnityEditor.ShaderGraph.DynamicValueMaterialSlot",
    "m_ObjectId": "99c2c86e95177a82bf5d9fad84164053",
    "m_Id": 1,
    "m_DisplayName": "B",
    "m_SlotType": 0,
    "m_Hidden": false,
    "m_ShaderOutputName": "B",
    "m_StageCapability": 3,
    "m_Value": {
        "e00": 2.0,
        "e01": 2.0,
        "e02": 2.0,
        "e03": 2.0,
        "e10": 2.0,
        "e11": 2.0,
        "e12": 2.0,
        "e13": 2.0,
        "e20": 2.0,
        "e21": 2.0,
        "e22": 2.0,
        "e23": 2.0,
        "e30": 2.0,
        "e31": 2.0,
        "e32": 2.0,
        "e33": 2.0
    },
    "m_DefaultValue": {
        "e00": 1.0,
        "e01": 0.0,
        "e02": 0.0,
        "e03": 0.0,
        "e10": 0.0,
        "e11": 1.0,
        "e12": 0.0,
        "e13": 0.0,
        "e20": 0.0,
        "e21": 0.0,
        "e22": 1.0,
        "e23": 0.0,
        "e30": 0.0,
        "e31": 0.0,
        "e32": 0.0,
        "e33": 1.0
    }
}

{
    "m_SGVersion": 0,
    "m_Type": "UnityEditor.ShaderGraph.BlockNode",
    "m_ObjectId": "9fe71ce411824ecebf77d63c27923a4d",
    "m_Group": {
        "m_Id": ""
    },
    "m_Name": "VertexDescription.Position",
    "m_DrawState": {
        "m_Expanded": true,
        "m_Position": {
            "serializedVersion": "2",
            "x": 0.0,
            "y": 0.0,
            "width": 0.0,
            "height": 0.0
        }
    },
    "m_Slots": [
        {
            "m_Id": "8394028d401b4715af027cb6365080c0"
        }
    ],
    "synonyms": [],
    "m_Precision": 0,
    "m_PreviewExpanded": true,
    "m_CustomColors": {
        "m_SerializableColors": []
    },
    "m_SerializedDescriptor": "VertexDescription.Position"
}

{
    "m_SGVersion": 0,
    "m_Type": "UnityEditor.ShaderGraph.Vector1MaterialSlot",
    "m_ObjectId": "a04d3a2e3bdced86b88bcbf148b4c5d0",
    "m_Id": 1179521780,
    "m_DisplayName": "Specularity",
    "m_SlotType": 0,
    "m_Hidden": false,
    "m_ShaderOutputName": "Vector1_64696399",
    "m_StageCapability": 2,
    "m_Value": 0.5,
    "m_DefaultValue": 0.0,
    "m_Labels": [
        "X"
    ]
}

{
    "m_SGVersion": 0,
    "m_Type": "UnityEditor.ShaderGraph.Vector1MaterialSlot",
    "m_ObjectId": "a04e4913fe3c1a8f9ddde834dd2b5727",
    "m_Id": 0,
    "m_DisplayName": "Smoothness Multiplier",
    "m_SlotType": 1,
    "m_Hidden": false,
    "m_ShaderOutputName": "Out",
    "m_StageCapability": 3,
    "m_Value": 0.0,
    "m_DefaultValue": 0.0,
    "m_Labels": [
        "X"
    ]
}

{
    "m_SGVersion": 0,
    "m_Type": "UnityEditor.ShaderGraph.Vector1MaterialSlot",
    "m_ObjectId": "a2d681269f809a8e8221f2b8f279daf7",
    "m_Id": 6,
    "m_DisplayName": "B",
    "m_SlotType": 1,
    "m_Hidden": false,
    "m_ShaderOutputName": "B",
    "m_StageCapability": 2,
    "m_Value": 0.0,
    "m_DefaultValue": 0.0,
    "m_Labels": [
        "X"
    ]
}

{
    "m_SGVersion": 0,
    "m_Type": "UnityEditor.ShaderGraph.DynamicValueMaterialSlot",
    "m_ObjectId": "a4e339eda740a880be060fe4712bb693",
    "m_Id": 0,
    "m_DisplayName": "A",
    "m_SlotType": 0,
    "m_Hidden": false,
    "m_ShaderOutputName": "A",
    "m_StageCapability": 3,
    "m_Value": {
        "e00": 0.0,
        "e01": 0.0,
        "e02": 0.0,
        "e03": 0.0,
        "e10": 0.0,
        "e11": 0.0,
        "e12": 0.0,
        "e13": 0.0,
        "e20": 0.0,
        "e21": 0.0,
        "e22": 0.0,
        "e23": 0.0,
        "e30": 0.0,
        "e31": 0.0,
        "e32": 0.0,
        "e33": 0.0
    },
    "m_DefaultValue": {
        "e00": 1.0,
        "e01": 0.0,
        "e02": 0.0,
        "e03": 0.0,
        "e10": 0.0,
        "e11": 1.0,
        "e12": 0.0,
        "e13": 0.0,
        "e20": 0.0,
        "e21": 0.0,
        "e22": 1.0,
        "e23": 0.0,
        "e30": 0.0,
        "e31": 0.0,
        "e32": 0.0,
        "e33": 1.0
    }
}

{
    "m_SGVersion": 0,
    "m_Type": "UnityEditor.ShaderGraph.PropertyNode",
    "m_ObjectId": "a8f5f53d585c7d859dbda84f3519e682",
    "m_Group": {
        "m_Id": ""
    },
    "m_Name": "Property",
    "m_DrawState": {
        "m_Expanded": true,
        "m_Position": {
            "serializedVersion": "2",
            "x": 5690.0,
            "y": 593.0000610351563,
            "width": 148.00001525878907,
            "height": 34.0
        }
    },
    "m_Slots": [
        {
            "m_Id": "8ec7b46e84838f8b8c25f648327e1cc4"
        }
    ],
    "synonyms": [],
    "m_Precision": 0,
    "m_PreviewExpanded": true,
    "m_CustomColors": {
        "m_SerializableColors": []
    },
    "m_Property": {
        "m_Id": "255a048d9a845c8b9f7c57e4c2441434"
    }
}

{
    "m_SGVersion": 0,
    "m_Type": "UnityEditor.ShaderGraph.SampleTexture2DNode",
    "m_ObjectId": "a917ec5af9f4b58f911efafd5ad9d4b3",
    "m_Group": {
        "m_Id": ""
    },
    "m_Name": "Sample Texture 2D",
    "m_DrawState": {
        "m_Expanded": true,
        "m_Position": {
            "serializedVersion": "2",
            "x": 5051.0,
            "y": 315.0000305175781,
            "width": 182.0,
            "height": 251.00001525878907
        }
    },
    "m_Slots": [
        {
            "m_Id": "d92ba2c24e6c5880992032ad6058b11a"
        },
        {
            "m_Id": "21509b9317a7e280ab0e2105038c1bd4"
        },
        {
            "m_Id": "f74c933e4c63048b9fbe8eb478bb1df8"
        },
        {
            "m_Id": "a2d681269f809a8e8221f2b8f279daf7"
        },
        {
            "m_Id": "30bc9425b70e158ba53904cb9331021d"
        },
        {
            "m_Id": "8b66e23c9cc6e68aacdb4b63bb482076"
        },
        {
            "m_Id": "65c4150fd5def68b961f45178c798e50"
        },
        {
            "m_Id": "c119343eacbc0f8080d2d6c0f984470f"
        }
    ],
    "synonyms": [],
    "m_Precision": 0,
    "m_PreviewExpanded": false,
    "m_CustomColors": {
        "m_SerializableColors": []
    },
    "m_TextureType": 0,
    "m_NormalMapSpace": 0
}

{
    "m_SGVersion": 0,
    "m_Type": "UnityEditor.ShaderGraph.Internal.Texture2DShaderProperty",
    "m_ObjectId": "a9d12874e737a385b5aaf320be758f86",
    "m_Guid": {
        "m_GuidSerialized": "f15c23b0-cdf5-416a-88be-98f4b4407fa6"
    },
    "m_Name": "Smoothness Map",
    "m_DefaultReferenceName": "Texture2D_AC095B54",
    "m_OverrideReferenceName": "",
    "m_GeneratePropertyBlock": true,
    "m_Precision": 0,
    "overrideHLSLDeclaration": false,
    "hlslDeclarationOverride": 0,
    "m_Hidden": false,
    "m_Value": {
        "m_SerializedTexture": "{\"texture\":{\"instanceID\":0}}",
        "m_Guid": ""
    },
    "m_Modifiable": true,
    "m_DefaultType": 0
}

{
    "m_SGVersion": 0,
    "m_Type": "UnityEditor.ShaderGraph.Vector1MaterialSlot",
    "m_ObjectId": "abea2dedcd5f8c868e537d270d320a05",
    "m_Id": 5,
    "m_DisplayName": "G",
    "m_SlotType": 1,
    "m_Hidden": false,
    "m_ShaderOutputName": "G",
    "m_StageCapability": 2,
    "m_Value": 0.0,
    "m_DefaultValue": 0.0,
    "m_Labels": [
        "X"
    ]
}

{
    "m_SGVersion": 0,
    "m_Type": "UnityEditor.ShaderGraph.SamplerStateMaterialSlot",
    "m_ObjectId": "b0d8a7ff4dadce8093a3e9d7f9edab18",
    "m_Id": 3,
    "m_DisplayName": "Sampler",
    "m_SlotType": 0,
    "m_Hidden": false,
    "m_ShaderOutputName": "Sampler",
    "m_StageCapability": 3
}

{
    "m_SGVersion": 0,
    "m_Type": "UnityEditor.ShaderGraph.ColorRGBMaterialSlot",
    "m_ObjectId": "b288658fc559400fb66d4b1b146d71f4",
    "m_Id": 0,
    "m_DisplayName": "Base Color",
    "m_SlotType": 0,
    "m_Hidden": false,
    "m_ShaderOutputName": "BaseColor",
    "m_StageCapability": 2,
    "m_Value": {
        "x": 0.7353569269180298,
        "y": 0.7353569269180298,
        "z": 0.7353569269180298
    },
    "m_DefaultValue": {
        "x": 0.0,
        "y": 0.0,
        "z": 0.0
    },
    "m_Labels": [],
    "m_ColorMode": 0,
    "m_DefaultColor": {
        "r": 0.5,
        "g": 0.5,
        "b": 0.5,
        "a": 1.0
    }
}

{
    "m_SGVersion": 0,
    "m_Type": "UnityEditor.ShaderGraph.Vector1MaterialSlot",
    "m_ObjectId": "bb48cd0053d9068b99adf00773850793",
    "m_Id": 6,
    "m_DisplayName": "B",
    "m_SlotType": 1,
    "m_Hidden": false,
    "m_ShaderOutputName": "B",
    "m_StageCapability": 2,
    "m_Value": 0.0,
    "m_DefaultValue": 0.0,
    "m_Labels": [
        "X"
    ]
}

{
    "m_SGVersion": 0,
    "m_Type": "UnityEditor.ShaderGraph.DynamicVectorMaterialSlot",
    "m_ObjectId": "bc23c8770875838eac4c81c332b25cab",
    "m_Id": 2,
    "m_DisplayName": "Off",
    "m_SlotType": 0,
    "m_Hidden": false,
    "m_ShaderOutputName": "Off",
    "m_StageCapability": 3,
    "m_Value": {
        "x": 0.0,
        "y": 0.0,
        "z": 0.0,
        "w": 0.0
    },
    "m_DefaultValue": {
        "x": 0.0,
        "y": 0.0,
        "z": 0.0,
        "w": 0.0
    }
}

{
    "m_SGVersion": 0,
    "m_Type": "UnityEditor.ShaderGraph.Vector1MaterialSlot",
    "m_ObjectId": "bd3657d25197a789b55207e632f9ea70",
    "m_Id": 7,
    "m_DisplayName": "A",
    "m_SlotType": 1,
    "m_Hidden": false,
    "m_ShaderOutputName": "A",
    "m_StageCapability": 2,
    "m_Value": 0.0,
    "m_DefaultValue": 0.0,
    "m_Labels": [
        "X"
    ]
}

{
    "m_SGVersion": 0,
    "m_Type": "UnityEditor.ShaderGraph.NormalMaterialSlot",
    "m_ObjectId": "bd80e926648a447ab374fbca9a26f76b",
    "m_Id": 0,
    "m_DisplayName": "Normal",
    "m_SlotType": 0,
    "m_Hidden": false,
    "m_ShaderOutputName": "Normal",
    "m_StageCapability": 1,
    "m_Value": {
        "x": 0.0,
        "y": 0.0,
        "z": 0.0
    },
    "m_DefaultValue": {
        "x": 0.0,
        "y": 0.0,
        "z": 0.0
    },
    "m_Labels": [],
    "m_Space": 0
}

{
    "m_SGVersion": 0,
    "m_Type": "UnityEditor.ShaderGraph.Texture2DMaterialSlot",
    "m_ObjectId": "c0c1196fdada608fb36a17d5a757728f",
    "m_Id": 0,
    "m_DisplayName": "Specularity Map",
    "m_SlotType": 1,
    "m_Hidden": false,
    "m_ShaderOutputName": "Out",
    "m_StageCapability": 3
}

{
    "m_SGVersion": 0,
    "m_Type": "UnityEditor.ShaderGraph.UVMaterialSlot",
    "m_ObjectId": "c10b2e94adf1d5868ce36f6a363978ec",
    "m_Id": 2,
    "m_DisplayName": "UV",
    "m_SlotType": 0,
    "m_Hidden": false,
    "m_ShaderOutputName": "UV",
    "m_StageCapability": 3,
    "m_Value": {
        "x": 0.0,
        "y": 0.0
    },
    "m_DefaultValue": {
        "x": 0.0,
        "y": 0.0
    },
    "m_Labels": [
        "X",
        "Y"
    ],
    "m_Channel": 0
}

{
    "m_SGVersion": 0,
    "m_Type": "UnityEditor.ShaderGraph.SamplerStateMaterialSlot",
    "m_ObjectId": "c119343eacbc0f8080d2d6c0f984470f",
    "m_Id": 3,
    "m_DisplayName": "Sampler",
    "m_SlotType": 0,
    "m_Hidden": false,
    "m_ShaderOutputName": "Sampler",
    "m_StageCapability": 3
}

{
    "m_SGVersion": 0,
    "m_Type": "UnityEditor.ShaderGraph.TangentMaterialSlot",
    "m_ObjectId": "c18eb3a2699f42f99d7fbdb0fdb1c5ed",
    "m_Id": 0,
    "m_DisplayName": "Tangent",
    "m_SlotType": 0,
    "m_Hidden": false,
    "m_ShaderOutputName": "Tangent",
    "m_StageCapability": 1,
    "m_Value": {
        "x": 0.0,
        "y": 0.0,
        "z": 0.0
    },
    "m_DefaultValue": {
        "x": 0.0,
        "y": 0.0,
        "z": 0.0
    },
    "m_Labels": [],
    "m_Space": 0
}

{
    "m_SGVersion": 0,
    "m_Type": "UnityEditor.ShaderGraph.Internal.Texture2DShaderProperty",
    "m_ObjectId": "c514e66b5d45ea89a637351200e909d0",
    "m_Guid": {
        "m_GuidSerialized": "ed272840-4ae8-4dbb-8517-00f56a7f742f"
    },
    "m_Name": "Ramp",
    "m_DefaultReferenceName": "Texture2D_44D33F6A",
    "m_OverrideReferenceName": "",
    "m_GeneratePropertyBlock": true,
    "m_Precision": 0,
    "overrideHLSLDeclaration": false,
    "hlslDeclarationOverride": 0,
    "m_Hidden": false,
    "m_Value": {
        "m_SerializedTexture": "{\"texture\":{\"fileID\":2800000,\"guid\":\"2cd44bdd9ee8eb54e88b6dc1e7b5cb32\",\"type\":3}}",
        "m_Guid": ""
    },
    "m_Modifiable": true,
    "m_DefaultType": 0
}

{
    "m_SGVersion": 0,
    "m_Type": "UnityEditor.ShaderGraph.Vector3MaterialSlot",
    "m_ObjectId": "c780ef3d19e36788ba5cc39f6e4efbb0",
    "m_Id": 1,
    "m_DisplayName": "Colour",
    "m_SlotType": 1,
    "m_Hidden": false,
    "m_ShaderOutputName": "Colour",
    "m_StageCapability": 2,
    "m_Value": {
        "x": 0.0,
        "y": 0.0,
        "z": 0.0
    },
    "m_DefaultValue": {
        "x": 0.0,
        "y": 0.0,
        "z": 0.0
    },
    "m_Labels": [
        "X",
        "Y",
        "Z"
    ]
}

{
    "m_SGVersion": 0,
    "m_Type": "UnityEditor.ShaderGraph.Vector1MaterialSlot",
    "m_ObjectId": "c862941f456ea583b89726f7e0fb3afc",
    "m_Id": -1133228641,
    "m_DisplayName": "Crosshatch Tiling",
    "m_SlotType": 0,
    "m_Hidden": false,
    "m_ShaderOutputName": "Vector1_B83B3411",
    "m_StageCapability": 2,
    "m_Value": 3.0,
    "m_DefaultValue": 0.0,
    "m_Labels": [
        "X"
    ]
}

{
    "m_SGVersion": 0,
    "m_Type": "UnityEditor.ShaderGraph.Vector1MaterialSlot",
    "m_ObjectId": "cb69acec60d4f18bb8945a21406c14b8",
    "m_Id": 0,
    "m_DisplayName": "Rim Strength",
    "m_SlotType": 1,
    "m_Hidden": false,
    "m_ShaderOutputName": "Out",
    "m_StageCapability": 3,
    "m_Value": 0.0,
    "m_DefaultValue": 0.0,
    "m_Labels": [
        "X"
    ]
}

{
    "m_SGVersion": 0,
    "m_Type": "UnityEditor.ShaderGraph.Texture2DInputMaterialSlot",
    "m_ObjectId": "cf6b1bda105fdf82b74a46c225ea443a",
    "m_Id": -1364875712,
    "m_DisplayName": "Normal Map",
    "m_SlotType": 0,
    "m_Hidden": false,
    "m_ShaderOutputName": "Texture2D_2AB47A21",
    "m_StageCapability": 2,
    "m_Texture": {
        "m_SerializedTexture": "{\"texture\":{\"instanceID\":0}}",
        "m_Guid": ""
    },
    "m_DefaultType": 0
}

{
    "m_SGVersion": 0,
    "m_Type": "UnityEditor.ShaderGraph.Texture2DInputMaterialSlot",
    "m_ObjectId": "d3502ffcd978e78fa40b48500acb38b6",
    "m_Id": 1,
    "m_DisplayName": "Texture",
    "m_SlotType": 0,
    "m_Hidden": false,
    "m_ShaderOutputName": "Texture",
    "m_StageCapability": 3,
    "m_Texture": {
        "m_SerializedTexture": "{\"texture\":{\"instanceID\":0}}",
        "m_Guid": ""
    },
    "m_DefaultType": 0
}

{
    "m_SGVersion": 0,
    "m_Type": "UnityEditor.ShaderGraph.Internal.Texture2DShaderProperty",
    "m_ObjectId": "d5f4a66c8362bc898257172e7083fb4c",
    "m_Guid": {
        "m_GuidSerialized": "34a39820-a376-4be7-9625-0ca015117b7e"
    },
    "m_Name": "Albedo",
    "m_DefaultReferenceName": "Texture2D_4016D18F",
    "m_OverrideReferenceName": "",
    "m_GeneratePropertyBlock": true,
    "m_Precision": 0,
    "overrideHLSLDeclaration": false,
    "hlslDeclarationOverride": 0,
    "m_Hidden": false,
    "m_Value": {
        "m_SerializedTexture": "{\"texture\":{\"fileID\":2800000,\"guid\":\"03d7994b5f3111844a797632427e4932\",\"type\":3}}",
        "m_Guid": ""
    },
    "m_Modifiable": true,
    "m_DefaultType": 0
}

{
    "m_SGVersion": 0,
    "m_Type": "UnityEditor.ShaderGraph.Vector4MaterialSlot",
    "m_ObjectId": "d92ba2c24e6c5880992032ad6058b11a",
    "m_Id": 0,
    "m_DisplayName": "RGBA",
    "m_SlotType": 1,
    "m_Hidden": false,
    "m_ShaderOutputName": "RGBA",
    "m_StageCapability": 2,
    "m_Value": {
        "x": 0.0,
        "y": 0.0,
        "z": 0.0,
        "w": 0.0
    },
    "m_DefaultValue": {
        "x": 0.0,
        "y": 0.0,
        "z": 0.0,
        "w": 0.0
    },
    "m_Labels": []
}

{
    "m_SGVersion": 0,
    "m_Type": "UnityEditor.ShaderGraph.PropertyNode",
    "m_ObjectId": "dc2886b158d19387ae1e19d7add9bb6f",
    "m_Group": {
        "m_Id": ""
    },
    "m_Name": "Property",
    "m_DrawState": {
        "m_Expanded": true,
        "m_Position": {
            "serializedVersion": "2",
            "x": 5695.0,
            "y": 444.0,
            "width": 143.0,
            "height": 34.0
        }
    },
    "m_Slots": [
        {
            "m_Id": "cb69acec60d4f18bb8945a21406c14b8"
        }
    ],
    "synonyms": [],
    "m_Precision": 0,
    "m_PreviewExpanded": true,
    "m_CustomColors": {
        "m_SerializableColors": []
    },
    "m_Property": {
        "m_Id": "30b13947b6a6a586bd2a6078ec9c725c"
    }
}

{
    "m_SGVersion": 0,
    "m_Type": "UnityEditor.ShaderGraph.Vector1MaterialSlot",
    "m_ObjectId": "de859402f402af83b521ae8078bd08f2",
    "m_Id": 0,
    "m_DisplayName": "Specularity Multiplier",
    "m_SlotType": 1,
    "m_Hidden": false,
    "m_ShaderOutputName": "Out",
    "m_StageCapability": 3,
    "m_Value": 0.0,
    "m_DefaultValue": 0.0,
    "m_Labels": [
        "X"
    ]
}

{
    "m_SGVersion": 0,
    "m_Type": "UnityEditor.ShaderGraph.Internal.Texture2DShaderProperty",
    "m_ObjectId": "e0ae9737292c058e80983cc6921e37d5",
    "m_Guid": {
        "m_GuidSerialized": "8764c08a-dcf8-4b40-9297-5fc6980d3a82"
    },
    "m_Name": "Occlusion Map",
    "m_DefaultReferenceName": "Texture2D_AC8B0498",
    "m_OverrideReferenceName": "",
    "m_GeneratePropertyBlock": true,
    "m_Precision": 0,
    "overrideHLSLDeclaration": false,
    "hlslDeclarationOverride": 0,
    "m_Hidden": false,
    "m_Value": {
        "m_SerializedTexture": "{\"texture\":{\"instanceID\":0}}",
        "m_Guid": ""
    },
    "m_Modifiable": true,
    "m_DefaultType": 0
}

{
    "m_SGVersion": 1,
    "m_Type": "UnityEditor.ShaderGraph.Internal.Vector1ShaderProperty",
    "m_ObjectId": "e48dbca5ff856d88b7cf44cdedfa2d78",
    "m_Guid": {
        "m_GuidSerialized": "81ab6aee-3f41-4ac8-882b-109062e4a074"
    },
    "m_Name": "Smoothness Multiplier",
    "m_DefaultReferenceName": "Vector1_732F5429",
    "m_OverrideReferenceName": "",
    "m_GeneratePropertyBlock": true,
    "m_Precision": 0,
    "overrideHLSLDeclaration": false,
    "hlslDeclarationOverride": 0,
    "m_Hidden": false,
    "m_Value": 0.5,
    "m_FloatType": 1,
    "m_RangeValues": {
        "x": 0.0,
        "y": 1.0
    }
}

{
    "m_SGVersion": 0,
    "m_Type": "UnityEditor.ShaderGraph.ShaderKeyword",
    "m_ObjectId": "e4ef7982106644b6ba4bb5af3ce9c928",
    "m_Guid": {
        "m_GuidSerialized": "31d2f9e8-5b70-425c-b7c3-b3688482d390"
    },
    "m_Name": "_MAIN_LIGHT_SHADOWS_CASCADE",
    "m_DefaultReferenceName": "BOOLEAN_D52BA149_ON",
    "m_OverrideReferenceName": "_MAIN_LIGHT_SHADOWS_CASCADE",
    "m_GeneratePropertyBlock": true,
    "m_KeywordType": 0,
    "m_KeywordDefinition": 1,
    "m_KeywordScope": 1,
    "m_Entries": [],
    "m_Value": 1,
    "m_IsEditable": true
}

{
    "m_SGVersion": 0,
    "m_Type": "UnityEditor.ShaderGraph.ShaderKeyword",
    "m_ObjectId": "e91e081d63594039972384b0a151c704",
    "m_Guid": {
        "m_GuidSerialized": "6171e20c-bb0f-4545-acd6-32f2846dcb3a"
    },
    "m_Name": "REQUIRES_VERTEX_SHADOW_COORD_INTERPOLATOR",
    "m_DefaultReferenceName": "BOOLEAN_3F08D798_ON",
    "m_OverrideReferenceName": "REQUIRES_VERTEX_SHADOW_COORD_INTERPOLATOR",
    "m_GeneratePropertyBlock": false,
    "m_KeywordType": 0,
    "m_KeywordDefinition": 1,
    "m_KeywordScope": 1,
    "m_Entries": [],
    "m_Value": 1,
    "m_IsEditable": true
}

{
    "m_SGVersion": 0,
    "m_Type": "UnityEditor.ShaderGraph.MultiplyNode",
    "m_ObjectId": "ea484e8159e294878a76836abf0641ad",
    "m_Group": {
        "m_Id": ""
    },
    "m_Name": "Multiply",
    "m_DrawState": {
        "m_Expanded": true,
        "m_Position": {
            "serializedVersion": "2",
            "x": 5549.00048828125,
            "y": 667.0,
            "width": 124.0,
            "height": 118.00000762939453
        }
    },
    "m_Slots": [
        {
            "m_Id": "583d2d6f855e8c8593378bddb3f15218"
        },
        {
            "m_Id": "99c2c86e95177a82bf5d9fad84164053"
        },
        {
            "m_Id": "5524c482598404849052884077c6238c"
        }
    ],
    "synonyms": [],
    "m_Precision": 0,
    "m_PreviewExpanded": false,
    "m_CustomColors": {
        "m_SerializableColors": []
    }
}

{
    "m_SGVersion": 0,
    "m_Type": "UnityEditor.ShaderGraph.SamplerStateMaterialSlot",
    "m_ObjectId": "f1e71fce7469c48299149ca07ce64f99",
    "m_Id": 0,
    "m_DisplayName": "Out",
    "m_SlotType": 1,
    "m_Hidden": false,
    "m_ShaderOutputName": "Out",
    "m_StageCapability": 3
}

{
    "m_SGVersion": 0,
    "m_Type": "UnityEditor.ShaderGraph.ShaderKeyword",
    "m_ObjectId": "f49583273c7d492193f1e04781bc7f6c",
    "m_Guid": {
        "m_GuidSerialized": "e485b0c7-4f56-4807-b77b-54487a3d3d66"
    },
    "m_Name": "_MAIN_LIGHT_SHADOWS",
    "m_DefaultReferenceName": "BOOLEAN_FFD79D8F_ON",
    "m_OverrideReferenceName": "_MAIN_LIGHT_SHADOWS",
    "m_GeneratePropertyBlock": true,
    "m_KeywordType": 0,
    "m_KeywordDefinition": 1,
    "m_KeywordScope": 1,
    "m_Entries": [],
    "m_Value": 1,
    "m_IsEditable": true
}

{
    "m_SGVersion": 0,
    "m_Type": "UnityEditor.ShaderGraph.Vector1MaterialSlot",
    "m_ObjectId": "f7072640dee3a68e9d6a4e73a1788fa8",
    "m_Id": 109679507,
    "m_DisplayName": "Rim Strength",
    "m_SlotType": 0,
    "m_Hidden": false,
    "m_ShaderOutputName": "Vector1_675A346C",
    "m_StageCapability": 2,
    "m_Value": 0.25,
    "m_DefaultValue": 0.0,
    "m_Labels": [
        "X"
    ]
}

{
    "m_SGVersion": 0,
    "m_Type": "UnityEditor.ShaderGraph.Vector1MaterialSlot",
    "m_ObjectId": "f74c933e4c63048b9fbe8eb478bb1df8",
    "m_Id": 5,
    "m_DisplayName": "G",
    "m_SlotType": 1,
    "m_Hidden": false,
    "m_ShaderOutputName": "G",
    "m_StageCapability": 2,
    "m_Value": 0.0,
    "m_DefaultValue": 0.0,
    "m_Labels": [
        "X"
    ]
}

