%YAML 1.1
%TAG !u! tag:unity3d.com,2011:
--- !u!128 &12800000
Font:
  m_ObjectHideFlags: 0
  m_CorrespondingSourceObject: {fileID: 0}
  m_PrefabInstance: {fileID: 0}
  m_PrefabAsset: {fileID: 0}
  m_Name: DPComicRegularWelsh
  serializedVersion: 5
  m_LineSpacing: 15.875
  m_DefaultMaterial: {fileID: 2100000, guid: b3cee20ecf8bb9d4e9a40cd313da4f50, type: 2}
  m_FontSize: 16
  m_Texture: {fileID: 2800000, guid: b59a11d3961089c44b6ef3678308cd70, type: 3}
  m_AsciiStartOffset: 0
  m_Tracking: 1
  m_CharacterSpacing: 0
  m_CharacterPadding: 1
  m_ConvertCase: -1
  m_CharacterRects:
  - serializedVersion: 2
    index: 32
    uv:
      serializedVersion: 2
      x: 0
      y: 0.015625
      width: 0.015625
      height: -0.015625
    vert:
      serializedVersion: 2
      x: -1
      y: 1
      width: 2
      height: -2
    advance: 5
    flipped: 0
  - serializedVersion: 2
    index: 33
    uv:
      serializedVersion: 2
      x: 0
      y: 0.1171875
      width: 0.03125
      height: -0.1015625
    vert:
      serializedVersion: 2
      x: -1
      y: 11
      width: 4
      height: -13
    advance: 3
    flipped: 0
  - serializedVersion: 2
    index: 34
    uv:
      serializedVersion: 2
      x: 0.03125
      y: 0.0546875
      width: 0.046875
      height: -0.0546875
    vert:
      serializedVersion: 2
      x: -1
      y: 11
      width: 7
      height: -6
    advance: 6
    flipped: 1
  - serializedVersion: 2
    index: 35
    uv:
      serializedVersion: 2
      x: 0
      y: 0.203125
      width: 0.0859375
      height: -0.0859375
    vert:
      serializedVersion: 2
      x: -1
      y: 12
      width: 11
      height: -11
    advance: 10
    flipped: 0
  - serializedVersion: 2
    index: 36
    uv:
      serializedVersion: 2
      x: 0.078125
      y: 0.109375
      width: 0.0703125
      height: -0.109375
    vert:
      serializedVersion: 2
      x: -1
      y: 12
      width: 9
      height: -14
    advance: 8
    flipped: 0
  - serializedVersion: 2
    index: 37
    uv:
      serializedVersion: 2
      x: 0.1484375
      y: 0.09375
      width: 0.09375
      height: -0.09375
    vert:
      serializedVersion: 2
      x: -1
      y: 11
      width: 12
      height: -12
    advance: 11
    flipped: 0
  - serializedVersion: 2
    index: 38
    uv:
      serializedVersion: 2
      x: 0
      y: 0.3046875
      width: 0.09375
      height: -0.1015625
    vert:
      serializedVersion: 2
      x: -1
      y: 12
      width: 12
      height: -13
    advance: 11
    flipped: 0
  - serializedVersion: 2
    index: 39
    uv:
      serializedVersion: 2
      x: 0.0859375
      y: 0.15625
      width: 0.03125
      height: -0.046875
    vert:
      serializedVersion: 2
      x: -1
      y: 11
      width: 4
      height: -6
    advance: 3
    flipped: 0
  - serializedVersion: 2
    index: 40
    uv:
      serializedVersion: 2
      x: 0.1484375
      y: 0.203125
      width: 0.0390625
      height: -0.109375
    vert:
      serializedVersion: 2
      x: -1
      y: 11
      width: 5
      height: -14
    advance: 4
    flipped: 0
  - serializedVersion: 2
    index: 41
    uv:
      serializedVersion: 2
      x: 0.2421875
      y: 0.109375
      width: 0.0390625
      height: -0.109375
    vert:
      serializedVersion: 2
      x: -1
      y: 11
      width: 5
      height: -14
    advance: 4
    flipped: 0
  - serializedVersion: 2
    index: 42
    uv:
      serializedVersion: 2
      x: 0.28125
      y: 0.078125
      width: 0.078125
      height: -0.078125
    vert:
      serializedVersion: 2
      x: -1
      y: 10
      width: 10
      height: -10
    advance: 9
    flipped: 0
  - serializedVersion: 2
    index: 43
    uv:
      serializedVersion: 2
      x: 0.09375
      y: 0.28125
      width: 0.078125
      height: -0.078125
    vert:
      serializedVersion: 2
      x: -1
      y: 10
      width: 10
      height: -10
    advance: 9
    flipped: 0
  - serializedVersion: 2
    index: 44
    uv:
      serializedVersion: 2
      x: 0
      y: 0.3515625
      width: 0.03125
      height: -0.046875
    vert:
      serializedVersion: 2
      x: -1
      y: 3
      width: 4
      height: -6
    advance: 3
    flipped: 0
  - serializedVersion: 2
    index: 45
    uv:
      serializedVersion: 2
      x: 0.1875
      y: 0.1640625
      width: 0.03125
      height: -0.0703125
    vert:
      serializedVersion: 2
      x: -1
      y: 7
      width: 9
      height: -4
    advance: 8
    flipped: 1
  - serializedVersion: 2
    index: 46
    uv:
      serializedVersion: 2
      x: 0.28125
      y: 0.109375
      width: 0.03125
      height: -0.03125
    vert:
      serializedVersion: 2
      x: -1
      y: 3
      width: 4
      height: -4
    advance: 3
    flipped: 0
  - serializedVersion: 2
    index: 47
    uv:
      serializedVersion: 2
      x: 0.359375
      y: 0.109375
      width: 0.0703125
      height: -0.109375
    vert:
      serializedVersion: 2
      x: -1
      y: 12
      width: 9
      height: -14
    advance: 7
    flipped: 0
  - serializedVersion: 2
    index: 48
    uv:
      serializedVersion: 2
      x: 0.09375
      y: 0.3671875
      width: 0.0625
      height: -0.0859375
    vert:
      serializedVersion: 2
      x: -1
      y: 10
      width: 8
      height: -11
    advance: 7
    flipped: 0
  - serializedVersion: 2
    index: 49
    uv:
      serializedVersion: 2
      x: 0.171875
      y: 0.2890625
      width: 0.0625
      height: -0.0859375
    vert:
      serializedVersion: 2
      x: -1
      y: 10
      width: 8
      height: -11
    advance: 7
    flipped: 0
  - serializedVersion: 2
    index: 50
    uv:
      serializedVersion: 2
      x: 0.21875
      y: 0.1953125
      width: 0.0703125
      height: -0.0859375
    vert:
      serializedVersion: 2
      x: -1
      y: 10
      width: 9
      height: -11
    advance: 7
    flipped: 0
  - serializedVersion: 2
    index: 51
    uv:
      serializedVersion: 2
      x: 0.2890625
      y: 0.1953125
      width: 0.0703125
      height: -0.0859375
    vert:
      serializedVersion: 2
      x: -1
      y: 10
      width: 9
      height: -11
    advance: 7
    flipped: 0
  - serializedVersion: 2
    index: 52
    uv:
      serializedVersion: 2
      x: 0.4296875
      y: 0.0859375
      width: 0.0625
      height: -0.0859375
    vert:
      serializedVersion: 2
      x: -1
      y: 10
      width: 8
      height: -11
    advance: 7
    flipped: 0
  - serializedVersion: 2
    index: 53
    uv:
      serializedVersion: 2
      x: 0.234375
      y: 0.28125
      width: 0.0703125
      height: -0.0859375
    vert:
      serializedVersion: 2
      x: -1
      y: 10
      width: 9
      height: -11
    advance: 7
    flipped: 0
  - serializedVersion: 2
    index: 54
    uv:
      serializedVersion: 2
      x: 0
      y: 0.4375
      width: 0.0625
      height: -0.0859375
    vert:
      serializedVersion: 2
      x: -1
      y: 10
      width: 8
      height: -11
    advance: 7
    flipped: 0
  - serializedVersion: 2
    index: 55
    uv:
      serializedVersion: 2
      x: 0.15625
      y: 0.375
      width: 0.0625
      height: -0.0859375
    vert:
      serializedVersion: 2
      x: -1
      y: 10
      width: 8
      height: -11
    advance: 7
    flipped: 0
  - serializedVersion: 2
    index: 56
    uv:
      serializedVersion: 2
      x: 0.359375
      y: 0.1953125
      width: 0.0703125
      height: -0.0859375
    vert:
      serializedVersion: 2
      x: -1
      y: 10
      width: 9
      height: -11
    advance: 7
    flipped: 0
  - serializedVersion: 2
    index: 57
    uv:
      serializedVersion: 2
      x: 0.4921875
      y: 0.0859375
      width: 0.0625
      height: -0.0859375
    vert:
      serializedVersion: 2
      x: -1
      y: 10
      width: 8
      height: -11
    advance: 7
    flipped: 0
  - serializedVersion: 2
    index: 58
    uv:
      serializedVersion: 2
      x: 0.3046875
      y: 0.2578125
      width: 0.03125
      height: -0.0625
    vert:
      serializedVersion: 2
      x: -1
      y: 7
      width: 4
      height: -8
    advance: 3
    flipped: 0
  - serializedVersion: 2
    index: 59
    uv:
      serializedVersion: 2
      x: 0.21875
      y: 0.3671875
      width: 0.03125
      height: -0.078125
    vert:
      serializedVersion: 2
      x: -1
      y: 7
      width: 4
      height: -10
    advance: 3
    flipped: 0
  - serializedVersion: 2
    index: 60
    uv:
      serializedVersion: 2
      x: 0.4296875
      y: 0.1875
      width: 0.0625
      height: -0.1015625
    vert:
      serializedVersion: 2
      x: -1
      y: 11
      width: 8
      height: -13
    advance: 7
    flipped: 0
  - serializedVersion: 2
    index: 61
    uv:
      serializedVersion: 2
      x: 0.0625
      y: 0.4375
      width: 0.0546875
      height: -0.0703125
    vert:
      serializedVersion: 2
      x: -1
      y: 8
      width: 9
      height: -7
    advance: 8
    flipped: 1
  - serializedVersion: 2
    index: 62
    uv:
      serializedVersion: 2
      x: 0.3359375
      y: 0.296875
      width: 0.0625
      height: -0.1015625
    vert:
      serializedVersion: 2
      x: -1
      y: 11
      width: 8
      height: -13
    advance: 7
    flipped: 0
  - serializedVersion: 2
    index: 63
    uv:
      serializedVersion: 2
      x: 0.25
      y: 0.390625
      width: 0.0703125
      height: -0.109375
    vert:
      serializedVersion: 2
      x: -1
      y: 12
      width: 9
      height: -14
    advance: 8
    flipped: 0
  - serializedVersion: 2
    index: 64
    uv:
      serializedVersion: 2
      x: 0.5546875
      y: 0.09375
      width: 0.078125
      height: -0.09375
    vert:
      serializedVersion: 2
      x: -1
      y: 11
      width: 10
      height: -12
    advance: 9
    flipped: 0
  - serializedVersion: 2
    index: 65
    uv:
      serializedVersion: 2
      x: 0.4921875
      y: 0.1796875
      width: 0.0625
      height: -0.09375
    vert:
      serializedVersion: 2
      x: -1
      y: 11
      width: 8
      height: -12
    advance: 7
    flipped: 0
  - serializedVersion: 2
    index: 66
    uv:
      serializedVersion: 2
      x: 0.3984375
      y: 0.2890625
      width: 0.0703125
      height: -0.09375
    vert:
      serializedVersion: 2
      x: -1
      y: 11
      width: 9
      height: -12
    advance: 8
    flipped: 0
  - serializedVersion: 2
    index: 67
    uv:
      serializedVersion: 2
      x: 0.3203125
      y: 0.390625
      width: 0.0703125
      height: -0.09375
    vert:
      serializedVersion: 2
      x: -1
      y: 11
      width: 9
      height: -12
    advance: 8
    flipped: 0
  - serializedVersion: 2
    index: 68
    uv:
      serializedVersion: 2
      x: 0.6328125
      y: 0.09375
      width: 0.0703125
      height: -0.09375
    vert:
      serializedVersion: 2
      x: -1
      y: 11
      width: 9
      height: -12
    advance: 8
    flipped: 0
  - serializedVersion: 2
    index: 69
    uv:
      serializedVersion: 2
      x: 0.1171875
      y: 0.46875
      width: 0.0625
      height: -0.09375
    vert:
      serializedVersion: 2
      x: -1
      y: 11
      width: 8
      height: -12
    advance: 6
    flipped: 0
  - serializedVersion: 2
    index: 70
    uv:
      serializedVersion: 2
      x: 0.5546875
      y: 0.1875
      width: 0.0625
      height: -0.09375
    vert:
      serializedVersion: 2
      x: -1
      y: 11
      width: 8
      height: -12
    advance: 6
    flipped: 0
  - serializedVersion: 2
    index: 71
    uv:
      serializedVersion: 2
      x: 0.46875
      y: 0.28125
      width: 0.0703125
      height: -0.09375
    vert:
      serializedVersion: 2
      x: -1
      y: 11
      width: 9
      height: -12
    advance: 8
    flipped: 0
  - serializedVersion: 2
    index: 72
    uv:
      serializedVersion: 2
      x: 0.390625
      y: 0.390625
      width: 0.0703125
      height: -0.09375
    vert:
      serializedVersion: 2
      x: -1
      y: 11
      width: 9
      height: -12
    advance: 8
    flipped: 0
  - serializedVersion: 2
    index: 73
    uv:
      serializedVersion: 2
      x: 0.703125
      y: 0.09375
      width: 0.03125
      height: -0.09375
    vert:
      serializedVersion: 2
      x: -1
      y: 11
      width: 4
      height: -12
    advance: 3
    flipped: 0
  - serializedVersion: 2
    index: 74
    uv:
      serializedVersion: 2
      x: 0.1796875
      y: 0.4765625
      width: 0.0625
      height: -0.1015625
    vert:
      serializedVersion: 2
      x: -1
      y: 11
      width: 8
      height: -13
    advance: 7
    flipped: 0
  - serializedVersion: 2
    index: 75
    uv:
      serializedVersion: 2
      x: 0.6171875
      y: 0.1875
      width: 0.0703125
      height: -0.09375
    vert:
      serializedVersion: 2
      x: -1
      y: 11
      width: 9
      height: -12
    advance: 8
    flipped: 0
  - serializedVersion: 2
    index: 76
    uv:
      serializedVersion: 2
      x: 0.5390625
      y: 0.28125
      width: 0.0625
      height: -0.09375
    vert:
      serializedVersion: 2
      x: -1
      y: 11
      width: 8
      height: -12
    advance: 6
    flipped: 0
  - serializedVersion: 2
    index: 77
    uv:
      serializedVersion: 2
      x: 0.734375
      y: 0.09375
      width: 0.078125
      height: -0.09375
    vert:
      serializedVersion: 2
      x: -1
      y: 11
      width: 10
      height: -12
    advance: 9
    flipped: 0
  - serializedVersion: 2
    index: 78
    uv:
      serializedVersion: 2
      x: 0.46875
      y: 0.375
      width: 0.0703125
      height: -0.09375
    vert:
      serializedVersion: 2
      x: -1
      y: 11
      width: 9
      height: -12
    advance: 8
    flipped: 0
  - serializedVersion: 2
    index: 79
    uv:
      serializedVersion: 2
      x: 0.2421875
      y: 0.484375
      width: 0.0703125
      height: -0.09375
    vert:
      serializedVersion: 2
      x: -1
      y: 11
      width: 9
      height: -12
    advance: 8
    flipped: 0
  - serializedVersion: 2
    index: 80
    uv:
      serializedVersion: 2
      x: 0.6875
      y: 0.1875
      width: 0.0625
      height: -0.09375
    vert:
      serializedVersion: 2
      x: -1
      y: 11
      width: 8
      height: -12
    advance: 7
    flipped: 0
  - serializedVersion: 2
    index: 81
    uv:
      serializedVersion: 2
      x: 0.6015625
      y: 0.2890625
      width: 0.0703125
      height: -0.1015625
    vert:
      serializedVersion: 2
      x: -1
      y: 11
      width: 9
      height: -13
    advance: 8
    flipped: 0
  - serializedVersion: 2
    index: 82
    uv:
      serializedVersion: 2
      x: 0.8125
      y: 0.09375
      width: 0.0625
      height: -0.09375
    vert:
      serializedVersion: 2
      x: -1
      y: 11
      width: 8
      height: -12
    advance: 7
    flipped: 0
  - serializedVersion: 2
    index: 83
    uv:
      serializedVersion: 2
      x: 0.4609375
      y: 0.46875
      width: 0.0703125
      height: -0.09375
    vert:
      serializedVersion: 2
      x: -1
      y: 11
      width: 9
      height: -12
    advance: 7
    flipped: 0
  - serializedVersion: 2
    index: 84
    uv:
      serializedVersion: 2
      x: 0.75
      y: 0.1875
      width: 0.078125
      height: -0.09375
    vert:
      serializedVersion: 2
      x: -1
      y: 11
      width: 10
      height: -12
    advance: 8
    flipped: 0
  - serializedVersion: 2
    index: 85
    uv:
      serializedVersion: 2
      x: 0.671875
      y: 0.28125
      width: 0.0625
      height: -0.09375
    vert:
      serializedVersion: 2
      x: -1
      y: 11
      width: 8
      height: -12
    advance: 7
    flipped: 0
  - serializedVersion: 2
    index: 86
    uv:
      serializedVersion: 2
      x: 0.875
      y: 0.09375
      width: 0.0703125
      height: -0.09375
    vert:
      serializedVersion: 2
      x: -1
      y: 11
      width: 9
      height: -12
    advance: 8
    flipped: 0
  - serializedVersion: 2
    index: 87
    uv:
      serializedVersion: 2
      x: 0.5390625
      y: 0.3828125
      width: 0.09375
      height: -0.09375
    vert:
      serializedVersion: 2
      x: -1
      y: 11
      width: 12
      height: -12
    advance: 11
    flipped: 0
  - serializedVersion: 2
    index: 88
    uv:
      serializedVersion: 2
      x: 0.53125
      y: 0.4765625
      width: 0.0703125
      height: -0.09375
    vert:
      serializedVersion: 2
      x: -1
      y: 11
      width: 9
      height: -12
    advance: 8
    flipped: 0
  - serializedVersion: 2
    index: 89
    uv:
      serializedVersion: 2
      x: 0.6328125
      y: 0.3828125
      width: 0.0625
      height: -0.09375
    vert:
      serializedVersion: 2
      x: -1
      y: 11
      width: 8
      height: -12
    advance: 7
    flipped: 0
  - serializedVersion: 2
    index: 90
    uv:
      serializedVersion: 2
      x: 0.734375
      y: 0.28125
      width: 0.078125
      height: -0.09375
    vert:
      serializedVersion: 2
      x: -1
      y: 11
      width: 10
      height: -12
    advance: 9
    flipped: 0
  - serializedVersion: 2
    index: 91
    uv:
      serializedVersion: 2
      x: 0.828125
      y: 0.2109375
      width: 0.0390625
      height: -0.1171875
    vert:
      serializedVersion: 2
      x: -1
      y: 12
      width: 5
      height: -15
    advance: 4
    flipped: 0
  - serializedVersion: 2
    index: 92
    uv:
      serializedVersion: 2
      x: 0.3125
      y: 0.5
      width: 0.0703125
      height: -0.109375
    vert:
      serializedVersion: 2
      x: -1
      y: 12
      width: 9
      height: -14
    advance: 7
    flipped: 0
  - serializedVersion: 2
    index: 93
    uv:
      serializedVersion: 2
      x: 0.9453125
      y: 0.1171875
      width: 0.0390625
      height: -0.1171875
    vert:
      serializedVersion: 2
      x: -1
      y: 12
      width: 5
      height: -15
    advance: 4
    flipped: 0
  - serializedVersion: 2
    index: 94
    uv:
      serializedVersion: 2
      x: 0.8671875
      y: 0.1640625
      width: 0.046875
      height: -0.0703125
    vert:
      serializedVersion: 2
      x: -1
      y: 11
      width: 9
      height: -6
    advance: 8
    flipped: 1
  - serializedVersion: 2
    index: 95
    uv:
      serializedVersion: 2
      x: 0.6015625
      y: 0.4765625
      width: 0.03125
      height: -0.09375
    vert:
      serializedVersion: 2
      x: -1
      y: 1
      width: 12
      height: -4
    advance: 10
    flipped: 1
  - serializedVersion: 2
    index: 96
    uv:
      serializedVersion: 2
      x: 0.6953125
      y: 0.3203125
      width: 0.03125
      height: -0.0390625
    vert:
      serializedVersion: 2
      x: -1
      y: 12
      width: 5
      height: -4
    advance: 4
    flipped: 1
  - serializedVersion: 2
    index: 97
    uv:
      serializedVersion: 2
      x: 0.3828125
      y: 0.4609375
      width: 0.0703125
      height: -0.0703125
    vert:
      serializedVersion: 2
      x: -1
      y: 8
      width: 9
      height: -9
    advance: 7
    flipped: 0
  - serializedVersion: 2
    index: 98
    uv:
      serializedVersion: 2
      x: 0.7265625
      y: 0.375
      width: 0.0625
      height: -0.09375
    vert:
      serializedVersion: 2
      x: -1
      y: 11
      width: 8
      height: -12
    advance: 7
    flipped: 0
  - serializedVersion: 2
    index: 99
    uv:
      serializedVersion: 2
      x: 0.6328125
      y: 0.453125
      width: 0.0625
      height: -0.0703125
    vert:
      serializedVersion: 2
      x: -1
      y: 8
      width: 8
      height: -9
    advance: 7
    flipped: 0
  - serializedVersion: 2
    index: 100
    uv:
      serializedVersion: 2
      x: 0.8671875
      y: 0.2578125
      width: 0.0625
      height: -0.09375
    vert:
      serializedVersion: 2
      x: -1
      y: 11
      width: 8
      height: -12
    advance: 7
    flipped: 0
  - serializedVersion: 2
    index: 101
    uv:
      serializedVersion: 2
      x: 0.7890625
      y: 0.3515625
      width: 0.0625
      height: -0.0703125
    vert:
      serializedVersion: 2
      x: -1
      y: 8
      width: 8
      height: -9
    advance: 6
    flipped: 0
  - serializedVersion: 2
    index: 102
    uv:
      serializedVersion: 2
      x: 0.3828125
      y: 0.5625
      width: 0.046875
      height: -0.1015625
    vert:
      serializedVersion: 2
      x: -1
      y: 11
      width: 6
      height: -13
    advance: 5
    flipped: 0
  - serializedVersion: 2
    index: 103
    uv:
      serializedVersion: 2
      x: 0.6953125
      y: 0.46875
      width: 0.0625
      height: -0.09375
    vert:
      serializedVersion: 2
      x: -1
      y: 8
      width: 8
      height: -12
    advance: 7
    flipped: 0
  - serializedVersion: 2
    index: 104
    uv:
      serializedVersion: 2
      x: 0.6328125
      y: 0.546875
      width: 0.0625
      height: -0.09375
    vert:
      serializedVersion: 2
      x: -1
      y: 11
      width: 8
      height: -12
    advance: 7
    flipped: 0
  - serializedVersion: 2
    index: 105
    uv:
      serializedVersion: 2
      x: 0.9296875
      y: 0.2109375
      width: 0.03125
      height: -0.09375
    vert:
      serializedVersion: 2
      x: -1
      y: 11
      width: 4
      height: -12
    advance: 3
    flipped: 0
  - serializedVersion: 2
    index: 106
    uv:
      serializedVersion: 2
      x: 0.8515625
      y: 0.375
      width: 0.046875
      height: -0.1171875
    vert:
      serializedVersion: 2
      x: -1
      y: 11
      width: 6
      height: -15
    advance: 5
    flipped: 0
  - serializedVersion: 2
    index: 107
    uv:
      serializedVersion: 2
      x: 0.7578125
      y: 0.46875
      width: 0.0625
      height: -0.09375
    vert:
      serializedVersion: 2
      x: -1
      y: 11
      width: 8
      height: -12
    advance: 7
    flipped: 0
  - serializedVersion: 2
    index: 108
    uv:
      serializedVersion: 2
      x: 0.9296875
      y: 0.3046875
      width: 0.03125
      height: -0.09375
    vert:
      serializedVersion: 2
      x: -1
      y: 11
      width: 4
      height: -12
    advance: 3
    flipped: 0
  - serializedVersion: 2
    index: 109
    uv:
      serializedVersion: 2
      x: 0.6953125
      y: 0.5625
      width: 0.0703125
      height: -0.09375
    vert:
      serializedVersion: 2
      x: -1
      y: 8
      width: 12
      height: -9
    advance: 11
    flipped: 1
  - serializedVersion: 2
    index: 110
    uv:
      serializedVersion: 2
      x: 0.4296875
      y: 0.5390625
      width: 0.0625
      height: -0.0703125
    vert:
      serializedVersion: 2
      x: -1
      y: 8
      width: 8
      height: -9
    advance: 7
    flipped: 0
  - serializedVersion: 2
    index: 111
    uv:
      serializedVersion: 2
      x: 0.8203125
      y: 0.4453125
      width: 0.0625
      height: -0.0703125
    vert:
      serializedVersion: 2
      x: -1
      y: 8
      width: 8
      height: -9
    advance: 7
    flipped: 0
  - serializedVersion: 2
    index: 112
    uv:
      serializedVersion: 2
      x: 0.765625
      y: 0.5625
      width: 0.0625
      height: -0.09375
    vert:
      serializedVersion: 2
      x: -1
      y: 8
      width: 8
      height: -12
    advance: 7
    flipped: 0
  - serializedVersion: 2
    index: 113
    uv:
      serializedVersion: 2
      x: 0.8984375
      y: 0.3984375
      width: 0.0625
      height: -0.09375
    vert:
      serializedVersion: 2
      x: -1
      y: 8
      width: 8
      height: -12
    advance: 7
    flipped: 0
  - serializedVersion: 2
    index: 114
    uv:
      serializedVersion: 2
      x: 0
      y: 0.5078125
      width: 0.0546875
      height: -0.0703125
    vert:
      serializedVersion: 2
      x: -1
      y: 8
      width: 7
      height: -9
    advance: 6
    flipped: 0
  - serializedVersion: 2
    index: 115
    uv:
      serializedVersion: 2
      x: 0.828125
      y: 0.515625
      width: 0.046875
      height: -0.0703125
    vert:
      serializedVersion: 2
      x: -1
      y: 8
      width: 6
      height: -9
    advance: 5
    flipped: 0
  - serializedVersion: 2
    index: 116
    uv:
      serializedVersion: 2
      x: 0.8828125
      y: 0.484375
      width: 0.0546875
      height: -0.0859375
    vert:
      serializedVersion: 2
      x: -1
      y: 10
      width: 7
      height: -11
    advance: 5
    flipped: 0
  - serializedVersion: 2
    index: 117
    uv:
      serializedVersion: 2
      x: 0
      y: 0.578125
      width: 0.0625
      height: -0.0703125
    vert:
      serializedVersion: 2
      x: -1
      y: 8
      width: 8
      height: -9
    advance: 7
    flipped: 0
  - serializedVersion: 2
    index: 118
    uv:
      serializedVersion: 2
      x: 0.9375
      y: 0.46875
      width: 0.0625
      height: -0.0703125
    vert:
      serializedVersion: 2
      x: -1
      y: 8
      width: 8
      height: -9
    advance: 7
    flipped: 0
  - serializedVersion: 2
    index: 119
    uv:
      serializedVersion: 2
      x: 0.828125
      y: 0.6015625
      width: 0.0703125
      height: -0.0859375
    vert:
      serializedVersion: 2
      x: -1
      y: 8
      width: 11
      height: -9
    advance: 10
    flipped: 1
  - serializedVersion: 2
    index: 120
    uv:
      serializedVersion: 2
      x: 0.9375
      y: 0.5390625
      width: 0.0625
      height: -0.0703125
    vert:
      serializedVersion: 2
      x: -1
      y: 8
      width: 8
      height: -9
    advance: 7
    flipped: 0
  - serializedVersion: 2
    index: 121
    uv:
      serializedVersion: 2
      x: 0
      y: 0.6640625
      width: 0.0625
      height: -0.0859375
    vert:
      serializedVersion: 2
      x: -1
      y: 8
      width: 8
      height: -11
    advance: 7
    flipped: 0
  - serializedVersion: 2
    index: 122
    uv:
      serializedVersion: 2
      x: 0.8984375
      y: 0.609375
      width: 0.0546875
      height: -0.0703125
    vert:
      serializedVersion: 2
      x: -1
      y: 8
      width: 7
      height: -9
    advance: 6
    flipped: 0
  - serializedVersion: 2
    index: 123
    uv:
      serializedVersion: 2
      x: 0.0625
      y: 0.5546875
      width: 0.046875
      height: -0.1171875
    vert:
      serializedVersion: 2
      x: -1
      y: 11
      width: 6
      height: -15
    advance: 5
    flipped: 0
  - serializedVersion: 2
    index: 124
    uv:
      serializedVersion: 2
      x: 0.109375
      y: 0.5859375
      width: 0.03125
      height: -0.1171875
    vert:
      serializedVersion: 2
      x: -1
      y: 11
      width: 4
      height: -15
    advance: 3
    flipped: 0
  - serializedVersion: 2
    index: 125
    uv:
      serializedVersion: 2
      x: 0.0625
      y: 0.671875
      width: 0.046875
      height: -0.1171875
    vert:
      serializedVersion: 2
      x: -1
      y: 11
      width: 6
      height: -15
    advance: 5
    flipped: 0
  - serializedVersion: 2
    index: 126
    uv:
      serializedVersion: 2
      x: 0.140625
      y: 0.53125
      width: 0.0390625
      height: -0.0625
    vert:
      serializedVersion: 2
      x: -1
      y: 7
      width: 8
      height: -5
    advance: 7
    flipped: 1
  - serializedVersion: 2
    index: 202
    uv:
      serializedVersion: 2
      x: 0.140625
      y: 0.6640625
      width: 0.078125
      height: -0.1328125
    vert:
      serializedVersion: 2
      x: -1
      y: 16
      width: 10
      height: -17
    advance: 6
    flipped: 0
  - serializedVersion: 2
    index: 206
    uv:
      serializedVersion: 2
      x: 0.21875
      y: 0.6171875
      width: 0.0703125
      height: -0.1328125
    vert:
      serializedVersion: 2
      x: -3
      y: 16
      width: 9
      height: -17
    advance: 3
    flipped: 0
  - serializedVersion: 2
    index: 212
    uv:
      serializedVersion: 2
      x: 0
      y: 0.8046875
      width: 0.078125
      height: -0.1328125
    vert:
      serializedVersion: 2
      x: -1
      y: 16
      width: 10
      height: -17
    advance: 8
    flipped: 0
  - serializedVersion: 2
    index: 219
    uv:
      serializedVersion: 2
      x: 0.078125
      y: 0.8046875
      width: 0.0703125
      height: -0.1328125
    vert:
      serializedVersion: 2
      x: -1
      y: 16
      width: 9
      height: -17
    advance: 7
    flipped: 0
  - serializedVersion: 2
    index: 226
    uv:
      serializedVersion: 2
      x: 0
      y: 0.9140625
      width: 0.0703125
      height: -0.109375
    vert:
      serializedVersion: 2
      x: -1
      y: 13
      width: 9
      height: -14
    advance: 7
    flipped: 0
  - serializedVersion: 2
    index: 234
    uv:
      serializedVersion: 2
      x: 0.2890625
      y: 0.609375
      width: 0.0703125
      height: -0.109375
    vert:
      serializedVersion: 2
      x: -1
      y: 13
      width: 9
      height: -14
    advance: 6
    flipped: 0
  - serializedVersion: 2
    index: 238
    uv:
      serializedVersion: 2
      x: 0.1484375
      y: 0.7578125
      width: 0.0703125
      height: -0.09375
    vert:
      serializedVersion: 2
      x: -3
      y: 11
      width: 9
      height: -12
    advance: 3
    flipped: 0
  - serializedVersion: 2
    index: 244
    uv:
      serializedVersion: 2
      x: 0.21875
      y: 0.7265625
      width: 0.0703125
      height: -0.109375
    vert:
      serializedVersion: 2
      x: -1
      y: 13
      width: 9
      height: -14
    advance: 7
    flipped: 0
  - serializedVersion: 2
    index: 251
    uv:
      serializedVersion: 2
      x: 0.0703125
      y: 0.9140625
      width: 0.0703125
      height: -0.109375
    vert:
      serializedVersion: 2
      x: -1
      y: 13
      width: 9
      height: -14
    advance: 7
    flipped: 0
  - serializedVersion: 2
    index: 372
    uv:
      serializedVersion: 2
      x: 0.2890625
      y: 0.7421875
      width: 0.09375
      height: -0.1328125
    vert:
      serializedVersion: 2
      x: -1
      y: 16
      width: 12
      height: -17
    advance: 11
    flipped: 0
  - serializedVersion: 2
    index: 373
    uv:
      serializedVersion: 2
      x: 0.1484375
      y: 0.8671875
      width: 0.0859375
      height: -0.109375
    vert:
      serializedVersion: 2
      x: -1
      y: 13
      width: 11
      height: -14
    advance: 10
    flipped: 0
  - serializedVersion: 2
    index: 374
    uv:
      serializedVersion: 2
      x: 0.3828125
      y: 0.6953125
      width: 0.0703125
      height: -0.1328125
    vert:
      serializedVersion: 2
      x: -2
      y: 16
      width: 9
      height: -17
    advance: 7
    flipped: 0
  - serializedVersion: 2
    index: 375
    uv:
      serializedVersion: 2
      x: 0.234375
      y: 0.8671875
      width: 0.0703125
      height: -0.125
    vert:
      serializedVersion: 2
      x: -1
      y: 13
      width: 9
      height: -16
    advance: 7
    flipped: 0
  - serializedVersion: 2
    index: 418
    uv:
      serializedVersion: 2
      x: 0.8125
      y: 0.203125
      width: 0.015625
      height: -0.015625
    vert:
      serializedVersion: 2
      x: -1
      y: 1
      width: 2
      height: -2
    advance: 8
    flipped: 0
  - serializedVersion: 2
    index: 710
    uv:
      serializedVersion: 2
      x: 0.140625
      y: 0.9375
      width: 0.046875
      height: -0.0703125
    vert:
      serializedVersion: 2
      x: -1
      y: 11
      width: 9
      height: -6
    advance: 8
    flipped: 1
  - serializedVersion: 2
    index: 718
    uv:
      serializedVersion: 2
      x: 0.453125
      y: 0.578125
      width: 0.03125
      height: -0.0390625
    vert:
      serializedVersion: 2
      x: -1
      y: 12
      width: 5
      height: -4
    advance: 4
    flipped: 1
  - serializedVersion: 2
    index: 719
    uv:
      serializedVersion: 2
      x: 0.6953125
      y: 0.3671875
      width: 0.03125
      height: -0.046875
    vert:
      serializedVersion: 2
      x: -1
      y: 11
      width: 4
      height: -6
    advance: 3
    flipped: 0
  - serializedVersion: 2
    index: 768
    uv:
      serializedVersion: 2
      x: 0.484375
      y: 0.578125
      width: 0.03125
      height: -0.0390625
    vert:
      serializedVersion: 2
      x: -1
      y: 12
      width: 5
      height: -4
    advance: 4
    flipped: 1
  - serializedVersion: 2
    index: 769
    uv:
      serializedVersion: 2
      x: 0.453125
      y: 0.625
      width: 0.03125
      height: -0.046875
    vert:
      serializedVersion: 2
      x: -1
      y: 11
      width: 4
      height: -6
    advance: 3
    flipped: 0
  - serializedVersion: 2
    index: 770
    uv:
      serializedVersion: 2
      x: 0.3046875
      y: 0.8125
      width: 0.046875
      height: -0.0703125
    vert:
      serializedVersion: 2
      x: -1
      y: 11
      width: 9
      height: -6
    advance: 8
    flipped: 1
  m_KerningValues: []
  m_PixelScale: 0.1
  m_FontData: 
  m_Ascent: 11.34375
  m_Descent: -3.09375
  m_DefaultStyle: 0
  m_FontNames:
  - DPComic
  m_FallbackFonts:
  - {fileID: 12800000, guid: ee4c51c20cf68764a999d6a368b4035f, type: 3}
  m_FontRenderingMode: 2
  m_UseLegacyBoundsCalculation: 0
  m_ShouldRoundAdvanceValue: 1
