%YAML 1.1
%TAG !u! tag:unity3d.com,2011:
--- !u!114 &-6830074793019878887
MonoBehaviour:
  m_ObjectHideFlags: 11
  m_CorrespondingSourceObject: {fileID: 0}
  m_PrefabInstance: {fileID: 0}
  m_PrefabAsset: {fileID: 0}
  m_GameObject: {fileID: 0}
  m_Enabled: 1
  m_EditorHideFlags: 0
  m_Script: {fileID: 11500000, guid: d0353a89b1f911e48b9e16bdc9f2e058, type: 3}
  m_Name: 
  m_EditorClassIdentifier: 
  version: 4
--- !u!21 &2100000
Material:
  serializedVersion: 6
  m_ObjectHideFlags: 0
  m_CorrespondingSourceObject: {fileID: 0}
  m_PrefabInstance: {fileID: 0}
  m_PrefabAsset: {fileID: 0}
  m_Name: Loot Atlas Rough
  m_Shader: {fileID: 4800000, guid: 2bbe24d8ff8766c478e9a0659538554d, type: 3}
  m_ShaderKeywords: _NORMALMAP _PARALLAXMAP
  m_LightmapFlags: 4
  m_EnableInstancingVariants: 0
  m_DoubleSidedGI: 0
  m_CustomRenderQueue: 2000
  stringTagMap:
    RenderType: Opaque
  disabledShaderPasses: []
  m_SavedProperties:
    serializedVersion: 3
    m_TexEnvs:
    - _BaseMap:
        m_Texture: {fileID: 2800000, guid: 05ab0ee72f27e7447b4c6576e77e64af, type: 3}
        m_Scale: {x: 1, y: 1}
        m_Offset: {x: 0, y: 0}
    - _BaseMapAbledo:
        m_Texture: {fileID: 0}
        m_Scale: {x: 1, y: 1}
        m_Offset: {x: 0, y: 0}
    - _BumpMap:
        m_Texture: {fileID: 0}
        m_Scale: {x: 1, y: 1}
        m_Offset: {x: 0, y: 0}
    - _CrossHatchDiagonal:
        m_Texture: {fileID: 2800000, guid: ba8b74e1319927740a777995359d06dd, type: 3}
        m_Scale: {x: 1, y: 1}
        m_Offset: {x: 0, y: 0}
    - _CrossHatchMixed:
        m_Texture: {fileID: 2800000, guid: 8e412b76bf946e54a98decf0a28684b3, type: 3}
        m_Scale: {x: 1, y: 1}
        m_Offset: {x: 0, y: 0}
    - _CrosshatchMapDiagona2l:
        m_Texture: {fileID: 0}
        m_Scale: {x: 1, y: 1}
        m_Offset: {x: 0, y: 0}
    - _CrosshatchMapDiagonal:
        m_Texture: {fileID: 2800000, guid: ba8b74e1319927740a777995359d06dd, type: 3}
        m_Scale: {x: 1, y: 1}
        m_Offset: {x: 0, y: 0}
    - _CrosshatchMapMixed:
        m_Texture: {fileID: 2800000, guid: 8e412b76bf946e54a98decf0a28684b3, type: 3}
        m_Scale: {x: 1, y: 1}
        m_Offset: {x: 0, y: 0}
    - _DetailAlbedoMap:
        m_Texture: {fileID: 0}
        m_Scale: {x: 1, y: 1}
        m_Offset: {x: 0, y: 0}
    - _DetailMask:
        m_Texture: {fileID: 0}
        m_Scale: {x: 1, y: 1}
        m_Offset: {x: 0, y: 0}
    - _DetailNormalMap:
        m_Texture: {fileID: 0}
        m_Scale: {x: 1, y: 1}
        m_Offset: {x: 0, y: 0}
    - _DetailTex:
        m_Texture: {fileID: 0}
        m_Scale: {x: 1, y: 1}
        m_Offset: {x: 0, y: 0}
    - _EmissionMap:
        m_Texture: {fileID: 0}
        m_Scale: {x: 1, y: 1}
        m_Offset: {x: 0, y: 0}
    - _MainTex:
        m_Texture: {fileID: 2800000, guid: 7140a9bc83a12ea49a081dda89216fff, type: 3}
        m_Scale: {x: 1, y: 1}
        m_Offset: {x: 0, y: 0}
    - _MetallicGlossMap:
        m_Texture: {fileID: 0}
        m_Scale: {x: 1, y: 1}
        m_Offset: {x: 0, y: 0}
    - _OcclusionMap:
        m_Texture: {fileID: 0}
        m_Scale: {x: 1, y: 1}
        m_Offset: {x: 0, y: 0}
    - _ParallaxMap:
        m_Texture: {fileID: 0}
        m_Scale: {x: 1, y: 1}
        m_Offset: {x: 0, y: 0}
    - _RampTex:
        m_Texture: {fileID: 0}
        m_Scale: {x: 1, y: 1}
        m_Offset: {x: 0, y: 0}
    - _RampTexture:
        m_Texture: {fileID: 2800000, guid: 277bfe83678c59342ab52a8c26f313b7, type: 3}
        m_Scale: {x: 1, y: 1}
        m_Offset: {x: 0, y: 0}
    - _SmoothnessMap:
        m_Texture: {fileID: 2800000, guid: 74bade6a2a540c4489a079a0de510d43, type: 3}
        m_Scale: {x: 1, y: 1}
        m_Offset: {x: 0, y: 0}
    - _SpecGlossMap:
        m_Texture: {fileID: 2800000, guid: 1f89fed00b6bc904c861ab847a811cb8, type: 3}
        m_Scale: {x: 1, y: 1}
        m_Offset: {x: 0, y: 0}
    - _SpecularMap:
        m_Texture: {fileID: 2800000, guid: 74bade6a2a540c4489a079a0de510d43, type: 3}
        m_Scale: {x: 1, y: 1}
        m_Offset: {x: 0, y: 0}
    - unity_Lightmaps:
        m_Texture: {fileID: 0}
        m_Scale: {x: 1, y: 1}
        m_Offset: {x: 0, y: 0}
    - unity_LightmapsInd:
        m_Texture: {fileID: 0}
        m_Scale: {x: 1, y: 1}
        m_Offset: {x: 0, y: 0}
    - unity_ShadowMasks:
        m_Texture: {fileID: 0}
        m_Scale: {x: 1, y: 1}
        m_Offset: {x: 0, y: 0}
    m_Ints: []
    m_Floats:
    - _AlphaClip: 0
    - _AmbientLightInfluence: 0.7
    - _Blend: 0
    - _BumpScale: 0
    - _ClearCoatMask: 0
    - _ClearCoatSmoothness: 0
    - _ColorMask: 15
    - _CrossHatchTiling: 1
    - _CrosshatchHighlightsBoundary: 0.1
    - _CrosshatchHighlightsShift: 0.75
    - _CrosshatchPatternBoundary: 0.27
    - _CrosshatchPatternShift: 0.5
    - _CrosshatchShift: 1
    - _CrosshatchTiling: 2
    - _Cull: 2
    - _Cutoff: 1
    - _DetailAlbedoMapScale: 1
    - _DetailNormalMapScale: 1
    - _DstBlend: 0
    - _EnvironmentReflections: 1
    - _FUCKINGBumpScale: 1
    - _GlossMapScale: 1
    - _Glossiness: 0
    - _GlossyReflections: 0
    - _Metallic: 0.2
    - _OcclusionStrength: 0
    - _Parallax: 0
    - _QueueOffset: 0
    - _ReceiveShadows: 1
    - _RimStrength: 0.7
    - _ShallowNormalBoostEnabled: 1
    - _ShallowNormalLightingBoost: 0.3
    - _ShallowNormalSharpness: 1.5
    - _Smoothness: 0.05
    - _SmoothnessTextureChannel: 0
    - _SpecMultipler: 0.25
    - _SpecularHighlights: 1
    - _SrcBlend: 1
    - _Stencil: 0
    - _StencilComp: 8
    - _StencilOp: 0
    - _StencilReadMask: 255
    - _StencilWriteMask: 255
    - _Strength: 0.2
    - _Surface: 0
    - _UseUIAlphaClip: 0
    - _WorkflowMode: 1
    - _ZWrite: 1
    - _hee: 1
    m_Colors:
    - _BaseColor: {r: 0.7294118, g: 0.63529414, b: 0.63529414, a: 1}
    - _Color: {r: 1, g: 1, b: 1, a: 1}
    - _EmissionColor: {r: 0, g: 0, b: 0, a: 1}
    - _SpecColor: {r: 1, g: 1, b: 1, a: 1}
  m_BuildTextureStacks: []
