%YAML 1.1
%TAG !u! tag:unity3d.com,2011:
--- !u!114 &11400000
MonoBehaviour:
  m_ObjectHideFlags: 0
  m_CorrespondingSourceObject: {fileID: 0}
  m_PrefabInstance: {fileID: 0}
  m_PrefabAsset: {fileID: 0}
  m_GameObject: {fileID: 0}
  m_Enabled: 1
  m_EditorHideFlags: 0
  m_Script: {fileID: 11500000, guid: c2300387843f9de498513f57815d7dff, type: 3}
  m_Name: EitemTestAnySlot
  m_EditorClassIdentifier: 
  m_enwEitemMaterol: EitemMaterolTest
  m_enwEitem: TestItemAnySlot
  m_equipRegions: 
  m_currentSlot:
    m_sSlotName: Tarian
    m_slotType: 2
    m_equipRegions: 06000000
